EESchema Schematic File Version 4
LIBS:power
LIBS:74xx
LIBS:pspice
LIBS:project_oscillator_harlay_1-cache
EELAYER 26 0
EELAYER END
$Descr A4 11693 8268
encoding utf-8
Sheet 1 1
Title ""
Date ""
Rev ""
Comp ""
Comment1 ""
Comment2 ""
Comment3 ""
Comment4 ""
$EndDescr
$Comp
L Device:R R3
U 1 1 5F883D49
P 4400 2300
F 0 "R3" H 4550 2350 50  0000 L TNN
F 1 "1K" H 4300 2350 50  0000 R TNN
F 2 "" V 4330 2300 50  0000 C CNN
F 3 "" H 4400 2300 50  0000 C CNN
F 4 "R" H 4400 2300 50  0001 C CNN "Spice_Primitive"
F 5 "1k" H 4400 2300 50  0001 C CNN "Spice_Model"
F 6 "Y" H 4400 2300 50  0001 C CNN "Spice_Netlist_Enabled"
	1    4400 2300
	-1   0    0    -1  
$EndComp
$Comp
L Transistor_BJT:BC337 Q2
U 1 1 5F8E9F56
P 3550 2850
F 0 "Q2" H 3700 3000 50  0000 L CNN
F 1 "BC337" H 3750 2900 50  0000 L CNN
F 2 "SOT-23" H 3700 2800 50  0000 L CIN
F 3 "" H 3550 2850 50  0000 L CNN
F 4 "Q" H 3550 2850 50  0001 C CNN "Spice_Primitive"
F 5 "Qbc337" H 3550 2850 50  0001 C CNN "Spice_Model"
F 6 "Y" H 3550 2850 50  0001 C CNN "Spice_Netlist_Enabled"
F 7 "/home/harlock/Documents/kicad projects/spice_models/BC337_a.bjt" H 3550 2850 50  0001 C CNN "Spice_Lib_File"
	1    3550 2850
	-1   0    0    -1  
$EndComp
$Comp
L Device:R R2
U 1 1 5F8E9F5C
P 3450 2300
F 0 "R2" H 3600 2300 50  0000 C CNN
F 1 "1K" H 3350 2350 50  0000 R TNN
F 2 "" V 3380 2300 50  0000 C CNN
F 3 "" H 3450 2300 50  0000 C CNN
F 4 "R" H 3450 2300 50  0001 C CNN "Spice_Primitive"
F 5 "1k" H 3450 2300 50  0001 C CNN "Spice_Model"
F 6 "Y" H 3450 2300 50  0001 C CNN "Spice_Netlist_Enabled"
	1    3450 2300
	1    0    0    -1  
$EndComp
$Comp
L Device:C C2
U 1 1 5F8EA333
P 3750 3000
F 0 "C2" H 3775 3100 50  0000 L CNN
F 1 "1u" H 3775 2900 50  0000 L CNN
F 2 "" H 3788 2850 50  0000 C CNN
F 3 "" H 3750 3000 50  0000 C CNN
F 4 "C" H 3750 3000 50  0001 C CNN "Spice_Primitive"
F 5 "1u" H 3750 3000 50  0001 C CNN "Spice_Model"
F 6 "Y" H 3750 3000 50  0001 C CNN "Spice_Netlist_Enabled"
	1    3750 3000
	1    0    0    -1  
$EndComp
$Comp
L Device:C C3
U 1 1 5F8EA398
P 4100 3000
F 0 "C3" H 3950 3100 50  0000 L CNN
F 1 "1u" H 3950 2800 50  0000 L CNN
F 2 "" H 4138 2850 50  0000 C CNN
F 3 "" H 4100 3000 50  0000 C CNN
F 4 "C" H 4100 3000 50  0001 C CNN "Spice_Primitive"
F 5 "1u" H 4100 3000 50  0001 C CNN "Spice_Model"
F 6 "Y" H 4100 3000 50  0001 C CNN "Spice_Netlist_Enabled"
	1    4100 3000
	1    0    0    -1  
$EndComp
Wire Wire Line
	4400 3050 4400 3150
Wire Wire Line
	4400 3150 4400 3250
Wire Wire Line
	3450 3050 3450 3150
Wire Wire Line
	3450 3150 3450 3250
Wire Wire Line
	3450 3150 3750 3150
Wire Wire Line
	4400 3150 4100 3150
Wire Wire Line
	1900 3150 1900 3200
Connection ~ 3450 3150
Connection ~ 4400 3150
Text GLabel 1800 2550 0    60   Input ~ 0
Vdd
Text GLabel 2600 2050 0    60   Input ~ 0
Vdd
Wire Wire Line
	3450 2050 3450 2150
Text Label 1950 2550 0    50   ~ 0
Vdd
Text Label 3600 2150 0    50   ~ 0
Vdd
Wire Wire Line
	2250 2550 2250 2600
Wire Wire Line
	1800 2550 1900 2550
Wire Wire Line
	1900 3200 2300 3200
Connection ~ 1900 3200
Wire Wire Line
	1900 3200 1900 3350
Text Label 2050 3200 0    50   ~ 0
GND
Text Label 4550 3150 0    50   ~ 0
GND
$Comp
L power:GND #PWR01
U 1 1 5F91CF1B
P 1900 3350
F 0 "#PWR01" H 1900 3100 50  0001 C CNN
F 1 "GND" H 1905 3177 50  0000 C CNN
F 2 "" H 1900 3350 50  0001 C CNN
F 3 "" H 1900 3350 50  0001 C CNN
	1    1900 3350
	1    0    0    -1  
$EndComp
$Comp
L power:GND #PWR02
U 1 1 5F91CF97
P 3450 3250
F 0 "#PWR02" H 3450 3000 50  0001 C CNN
F 1 "GND" H 3455 3077 50  0000 C CNN
F 2 "" H 3450 3250 50  0001 C CNN
F 3 "" H 3450 3250 50  0001 C CNN
	1    3450 3250
	1    0    0    -1  
$EndComp
$Comp
L power:GND #PWR03
U 1 1 5F91CFCB
P 4400 3250
F 0 "#PWR03" H 4400 3000 50  0001 C CNN
F 1 "GND" H 4405 3077 50  0000 C CNN
F 2 "" H 4400 3250 50  0001 C CNN
F 3 "" H 4400 3250 50  0001 C CNN
	1    4400 3250
	1    0    0    -1  
$EndComp
$Comp
L pspice:VSOURCE V1
U 1 1 5F91D31C
P 1900 2850
F 0 "V1" H 2128 2896 50  0000 L CNN
F 1 "12V" H 2128 2805 50  0000 L CNN
F 2 "" H 1900 2850 50  0001 C CNN
F 3 "~" H 1900 2850 50  0001 C CNN
F 4 "V" H 1900 2850 50  0001 C CNN "Spice_Primitive"
F 5 "dc 12" H 1900 2850 50  0001 C CNN "Spice_Model"
F 6 "Y" H 1900 2850 50  0001 C CNN "Spice_Netlist_Enabled"
	1    1900 2850
	1    0    0    -1  
$EndComp
Connection ~ 1900 2550
Wire Wire Line
	1900 2550 2250 2550
Wire Wire Line
	5650 2350 5250 2350
Wire Wire Line
	5250 2350 5250 2600
$Comp
L power:PWR_FLAG #FLG0101
U 1 1 5F91E50E
P 1900 3200
F 0 "#FLG0101" H 1900 3275 50  0001 C CNN
F 1 "PWR_FLAG" V 1900 3328 50  0000 L CNN
F 2 "" H 1900 3200 50  0001 C CNN
F 3 "~" H 1900 3200 50  0001 C CNN
	1    1900 3200
	0    -1   -1   0   
$EndComp
$Comp
L power:PWR_FLAG #FLG0102
U 1 1 5F91E588
P 1900 2550
F 0 "#FLG0102" H 1900 2625 50  0001 C CNN
F 1 "PWR_FLAG" H 1900 2724 50  0000 C CNN
F 2 "" H 1900 2550 50  0001 C CNN
F 3 "~" H 1900 2550 50  0001 C CNN
	1    1900 2550
	1    0    0    -1  
$EndComp
$Comp
L Device:R R4
U 1 1 5F91EB5D
P 5050 2600
F 0 "R4" V 4950 2700 50  0000 L TNN
F 1 ".1" V 5100 2800 50  0000 R TNN
F 2 "" V 4980 2600 50  0000 C CNN
F 3 "" H 5050 2600 50  0000 C CNN
F 4 "R" H 5050 2600 50  0001 C CNN "Spice_Primitive"
F 5 "0.1" H 5050 2600 50  0001 C CNN "Spice_Model"
F 6 "Y" H 5050 2600 50  0001 C CNN "Spice_Netlist_Enabled"
	1    5050 2600
	0    1    -1   0   
$EndComp
Wire Wire Line
	5200 2600 5250 2600
Wire Wire Line
	4400 2050 4400 2150
Wire Wire Line
	3450 2050 4400 2050
Wire Wire Line
	2600 2050 2700 2050
$Comp
L Transistor_BJT:BC337 Q1
U 1 1 5F92C4D4
P 2800 2850
F 0 "Q1" H 3000 2925 50  0000 L CNN
F 1 "BC337" H 3000 2850 50  0000 L CNN
F 2 "SOT-23" H 3000 2775 50  0000 L CIN
F 3 "" H 2800 2850 50  0000 L CNN
F 4 "Q" H 2800 2850 50  0001 C CNN "Spice_Primitive"
F 5 "Qbc337" H 2800 2850 50  0001 C CNN "Spice_Model"
F 6 "Y" H 2800 2850 50  0001 C CNN "Spice_Netlist_Enabled"
F 7 "/home/harlock/Documents/kicad projects/spice_models/BC337_a.bjt" H 2800 2850 50  0001 C CNN "Spice_Lib_File"
	1    2800 2850
	-1   0    0    -1  
$EndComp
$Comp
L Device:R R1
U 1 1 5F92C4DD
P 2700 2300
F 0 "R1" H 2850 2300 50  0000 C CNN
F 1 "1K" H 2600 2350 50  0000 R TNN
F 2 "" V 2630 2300 50  0000 C CNN
F 3 "" H 2700 2300 50  0000 C CNN
F 4 "R" H 2700 2300 50  0001 C CNN "Spice_Primitive"
F 5 "1k" H 2700 2300 50  0001 C CNN "Spice_Model"
F 6 "Y" H 2700 2300 50  0001 C CNN "Spice_Netlist_Enabled"
	1    2700 2300
	1    0    0    -1  
$EndComp
$Comp
L Device:C C1
U 1 1 5F92C4E6
P 3000 3000
F 0 "C1" H 3050 2800 50  0000 L CNN
F 1 "1u" H 3025 2900 50  0000 L CNN
F 2 "" H 3038 2850 50  0000 C CNN
F 3 "" H 3000 3000 50  0000 C CNN
F 4 "C" H 3000 3000 50  0001 C CNN "Spice_Primitive"
F 5 "1u" H 3000 3000 50  0001 C CNN "Spice_Model"
F 6 "Y" H 3000 3000 50  0001 C CNN "Spice_Netlist_Enabled"
	1    3000 3000
	1    0    0    -1  
$EndComp
Wire Wire Line
	2700 3050 2700 3150
Wire Wire Line
	2700 3150 2700 3250
Wire Wire Line
	2700 3150 3000 3150
Connection ~ 2700 3150
Wire Wire Line
	2700 2050 2700 2150
$Comp
L power:GND #PWR04
U 1 1 5F92C4F4
P 2700 3250
F 0 "#PWR04" H 2700 3000 50  0001 C CNN
F 1 "GND" H 2705 3077 50  0000 C CNN
F 2 "" H 2700 3250 50  0001 C CNN
F 3 "" H 2700 3250 50  0001 C CNN
	1    2700 3250
	1    0    0    -1  
$EndComp
Connection ~ 2700 2050
Wire Wire Line
	3750 2550 3750 2850
Connection ~ 3750 2850
Wire Wire Line
	3450 2450 3450 2500
Wire Wire Line
	3450 2500 4100 2500
Wire Wire Line
	4100 2500 4100 2850
Wire Wire Line
	3450 2650 3450 2500
Connection ~ 3450 2500
Connection ~ 4100 2850
$Comp
L Transistor_BJT:BC337 Q3
U 1 1 5F883752
P 4300 2850
F 0 "Q3" H 4500 2925 50  0000 L CNN
F 1 "BC337" H 4500 2850 50  0000 L CNN
F 2 "SOT-23" H 4500 2775 50  0000 L CIN
F 3 "" H 4300 2850 50  0000 L CNN
F 4 "Q" H 4300 2850 50  0001 C CNN "Spice_Primitive"
F 5 "Qbc337" H 4300 2850 50  0001 C CNN "Spice_Model"
F 6 "Y" H 4300 2850 50  0001 C CNN "Spice_Netlist_Enabled"
F 7 "/home/harlock/Documents/kicad projects/spice_models/BC337_a.bjt" H 4300 2850 50  0001 C CNN "Spice_Lib_File"
	1    4300 2850
	1    0    0    -1  
$EndComp
$Comp
L pspice:ISOURCE I1
U 1 1 5F91D9D8
P 5650 2750
F 0 "I1" H 5880 2796 50  0000 L CNN
F 1 "ISOURCE" H 5880 2705 50  0000 L CNN
F 2 "" H 5650 2750 50  0001 C CNN
F 3 "~" H 5650 2750 50  0001 C CNN
F 4 "I" H 5650 2750 50  0001 C CNN "Spice_Primitive"
F 5 "pulse(0 1 0 0 0 1u 0)" H 5650 2750 50  0001 C CNN "Spice_Model"
F 6 "Y" H 5650 2750 50  0001 C CNN "Spice_Netlist_Enabled"
	1    5650 2750
	1    0    0    -1  
$EndComp
Wire Wire Line
	4400 2450 4400 2600
Connection ~ 4400 2600
Wire Wire Line
	4400 2600 4400 2650
Connection ~ 4400 2050
Wire Wire Line
	4400 2050 4550 2050
Wire Wire Line
	2700 2450 2700 2550
Wire Wire Line
	3000 2600 3000 2850
Wire Wire Line
	3000 2600 4400 2600
Connection ~ 3000 2850
Wire Wire Line
	2700 2550 3750 2550
Connection ~ 2700 2550
Wire Wire Line
	2700 2550 2700 2650
Wire Wire Line
	2700 2050 3450 2050
Connection ~ 3450 2050
Wire Wire Line
	4400 2600 4900 2600
Wire Wire Line
	4400 3150 5650 3150
Wire Wire Line
	3400 5750 3400 5850
Wire Wire Line
	3400 5850 3400 5950
Connection ~ 3400 5850
Text Label 3550 5850 0    50   ~ 0
GND
$Comp
L power:GND #PWR06
U 1 1 5F940AF2
P 3400 5950
F 0 "#PWR06" H 3400 5700 50  0001 C CNN
F 1 "GND" H 3405 5777 50  0000 C CNN
F 2 "" H 3400 5950 50  0001 C CNN
F 3 "" H 3400 5950 50  0001 C CNN
	1    3400 5950
	1    0    0    -1  
$EndComp
$Comp
L Transistor_BJT:BC337 Q4
U 1 1 5F940B01
P 3300 5550
F 0 "Q4" H 3500 5625 50  0000 L CNN
F 1 "BC337" H 3500 5550 50  0000 L CNN
F 2 "SOT-23" H 3500 5475 50  0000 L CIN
F 3 "" H 3300 5550 50  0000 L CNN
F 4 "Q" H 3300 5550 50  0001 C CNN "Spice_Primitive"
F 5 "Qbc337" H 3300 5550 50  0001 C CNN "Spice_Model"
F 6 "Y" H 3300 5550 50  0001 C CNN "Spice_Netlist_Enabled"
F 7 "/home/harlock/Documents/kicad projects/spice_models/BC337_a.bjt" H 3300 5550 50  0001 C CNN "Spice_Lib_File"
	1    3300 5550
	1    0    0    -1  
$EndComp
Wire Wire Line
	3400 5150 3400 5300
Connection ~ 3400 5300
Wire Wire Line
	3400 5300 3400 5350
Wire Wire Line
	2800 5650 2850 5650
Wire Wire Line
	2850 5650 2850 5550
Wire Wire Line
	2850 5550 3000 5550
Wire Wire Line
	2800 4900 2800 5300
Wire Wire Line
	2800 5300 3400 5300
Text GLabel 3350 4500 0    60   Input ~ 0
Vdd
Wire Wire Line
	3400 4500 3400 4650
Wire Wire Line
	3400 4500 3350 4500
$Comp
L Device:R R5
U 1 1 5F95587F
P 3000 5000
F 0 "R5" H 2800 4900 50  0000 L TNN
F 1 "1.11K" H 2900 5050 50  0000 R TNN
F 2 "" V 2930 5000 50  0000 C CNN
F 3 "" H 3000 5000 50  0000 C CNN
F 4 "R" H 3000 5000 50  0001 C CNN "Spice_Primitive"
F 5 "1.11k" H 3000 5000 50  0001 C CNN "Spice_Model"
F 6 "Y" H 3000 5000 50  0001 C CNN "Spice_Netlist_Enabled"
	1    3000 5000
	-1   0    0    -1  
$EndComp
Wire Wire Line
	3000 5150 3000 5550
Connection ~ 3000 5550
Wire Wire Line
	3000 5550 3100 5550
Wire Wire Line
	3000 4850 3000 4650
Wire Wire Line
	3000 4650 3400 4650
Connection ~ 3400 4650
Wire Wire Line
	3400 4650 3400 4850
$Comp
L Device:R R6
U 1 1 5F958107
P 3000 5700
F 0 "R6" H 2800 5700 50  0000 L TNN
F 1 "80" H 2950 5500 50  0000 R TNN
F 2 "" V 2930 5700 50  0000 C CNN
F 3 "" H 3000 5700 50  0000 C CNN
F 4 "R" H 3000 5700 50  0001 C CNN "Spice_Primitive"
F 5 "80" H 3000 5700 50  0001 C CNN "Spice_Model"
F 6 "Y" H 3000 5700 50  0001 C CNN "Spice_Netlist_Enabled"
	1    3000 5700
	-1   0    0    -1  
$EndComp
Wire Wire Line
	3000 5850 3400 5850
Wire Wire Line
	3400 5850 3800 5850
$Comp
L Device:L L3
U 1 1 5F95DA0F
P 3400 5000
F 0 "L3" H 3453 5046 50  0000 L CNN
F 1 "400mH" H 3453 4955 50  0000 L CNN
F 2 "" H 3400 5000 50  0001 C CNN
F 3 "~" H 3400 5000 50  0001 C CNN
F 4 "L" H 3400 5000 50  0001 C CNN "Spice_Primitive"
F 5 "400m" H 3400 5000 50  0001 C CNN "Spice_Model"
F 6 "Y" H 3400 5000 50  0001 C CNN "Spice_Netlist_Enabled"
	1    3400 5000
	1    0    0    -1  
$EndComp
Wire Wire Line
	3050 6350 3500 6350
$Comp
L power:GND #PWR07
U 1 1 5F943CCD
P 3500 7150
F 0 "#PWR07" H 3500 6900 50  0001 C CNN
F 1 "GND" H 3505 6977 50  0000 C CNN
F 2 "" H 3500 7150 50  0001 C CNN
F 3 "" H 3500 7150 50  0001 C CNN
	1    3500 7150
	1    0    0    -1  
$EndComp
$Comp
L pspice:ISOURCE I2
U 1 1 5F93F706
P 3500 6750
F 0 "I2" H 3730 6796 50  0000 L CNN
F 1 "ISOURCE" H 3730 6705 50  0000 L CNN
F 2 "" H 3500 6750 50  0001 C CNN
F 3 "~" H 3500 6750 50  0001 C CNN
F 4 "I" H 3500 6750 50  0001 C CNN "Spice_Primitive"
F 5 "pulse(0 1 0 0 0 1u 0)" H 3500 6750 50  0001 C CNN "Spice_Model"
F 6 "Y" H 3500 6750 50  0001 C CNN "Spice_Netlist_Enabled"
	1    3500 6750
	1    0    0    -1  
$EndComp
$Comp
L Device:R R7
U 1 1 5F93F6FC
P 2900 6350
F 0 "R7" V 2800 6450 50  0000 L TNN
F 1 ".1" V 2950 6550 50  0000 R TNN
F 2 "" V 2830 6350 50  0000 C CNN
F 3 "" H 2900 6350 50  0000 C CNN
F 4 "R" H 2900 6350 50  0001 C CNN "Spice_Primitive"
F 5 "0.1" H 2900 6350 50  0001 C CNN "Spice_Model"
F 6 "Y" H 2900 6350 50  0001 C CNN "Spice_Netlist_Enabled"
	1    2900 6350
	0    1    -1   0   
$EndComp
Wire Wire Line
	2450 5650 2450 6350
Wire Wire Line
	2750 6350 2450 6350
Wire Wire Line
	2500 5650 2450 5650
$Comp
L power:GND #PWR05
U 1 1 5F9484A4
P 1750 5350
F 0 "#PWR05" H 1750 5100 50  0001 C CNN
F 1 "GND" H 1755 5177 50  0000 C CNN
F 2 "" H 1750 5350 50  0001 C CNN
F 3 "" H 1750 5350 50  0001 C CNN
	1    1750 5350
	1    0    0    -1  
$EndComp
Wire Wire Line
	2050 5300 2050 5350
Wire Wire Line
	1750 5300 1750 5350
Wire Wire Line
	2050 5300 1750 5300
Connection ~ 2450 5650
Wire Wire Line
	2050 5650 2450 5650
Wire Wire Line
	2450 5200 2450 5350
Connection ~ 2050 5300
Wire Wire Line
	2050 5200 2050 5300
Wire Wire Line
	2450 4900 2500 4900
Wire Wire Line
	2050 4900 2450 4900
Connection ~ 2450 4900
$Comp
L Device:C C4
U 1 1 5F942F07
P 2450 5050
F 0 "C4" H 2300 5150 50  0000 L CNN
F 1 "1u" H 2300 4950 50  0000 L CNN
F 2 "" H 2488 4900 50  0000 C CNN
F 3 "" H 2450 5050 50  0000 C CNN
F 4 "C" H 2450 5050 50  0001 C CNN "Spice_Primitive"
F 5 "1u" H 2450 5050 50  0001 C CNN "Spice_Model"
F 6 "Y" H 2450 5050 50  0001 C CNN "Spice_Netlist_Enabled"
	1    2450 5050
	1    0    0    -1  
$EndComp
$Comp
L Device:L L2
U 1 1 5F942432
P 2050 5500
F 0 "L2" H 2103 5546 50  0000 L CNN
F 1 "400uH" H 2103 5455 50  0000 L CNN
F 2 "" H 2050 5500 50  0001 C CNN
F 3 "~" H 2050 5500 50  0001 C CNN
F 4 "L" H 2050 5500 50  0001 C CNN "Spice_Primitive"
F 5 "400u" H 2050 5500 50  0001 C CNN "Spice_Model"
F 6 "Y" H 2050 5500 50  0001 C CNN "Spice_Netlist_Enabled"
	1    2050 5500
	1    0    0    -1  
$EndComp
$Comp
L Device:L L1
U 1 1 5F94237E
P 2050 5050
F 0 "L1" H 1850 5100 50  0000 L CNN
F 1 "400uH" H 1750 5000 50  0000 L CNN
F 2 "" H 2050 5050 50  0001 C CNN
F 3 "~" H 2050 5050 50  0001 C CNN
F 4 "L" H 2050 5050 50  0001 C CNN "Spice_Primitive"
F 5 "400u" H 2050 5050 50  0001 C CNN "Spice_Model"
F 6 "Y" H 2050 5050 50  0001 C CNN "Spice_Netlist_Enabled"
	1    2050 5050
	1    0    0    -1  
$EndComp
$Comp
L Device:C C5
U 1 1 5F940AE7
P 2450 5500
F 0 "C5" H 2300 5600 50  0000 L CNN
F 1 "1u" H 2550 5600 50  0000 L CNN
F 2 "" H 2488 5350 50  0000 C CNN
F 3 "" H 2450 5500 50  0000 C CNN
F 4 "C" H 2450 5500 50  0001 C CNN "Spice_Primitive"
F 5 "1u" H 2450 5500 50  0001 C CNN "Spice_Model"
F 6 "Y" H 2450 5500 50  0001 C CNN "Spice_Netlist_Enabled"
	1    2450 5500
	1    0    0    -1  
$EndComp
$Comp
L Device:C C6
U 1 1 5F94A31A
P 2650 4900
F 0 "C6" V 2500 5000 50  0000 L CNN
F 1 "10pF" V 2500 4750 50  0000 L CNN
F 2 "" H 2688 4750 50  0000 C CNN
F 3 "" H 2650 4900 50  0000 C CNN
F 4 "C" H 2650 4900 50  0001 C CNN "Spice_Primitive"
F 5 "10p" H 2650 4900 50  0001 C CNN "Spice_Model"
F 6 "Y" H 2650 4900 50  0001 C CNN "Spice_Netlist_Enabled"
	1    2650 4900
	0    1    1    0   
$EndComp
$Comp
L Device:C C7
U 1 1 5F94A3B6
P 2650 5650
F 0 "C7" V 2500 5650 50  0000 L CNN
F 1 "10pF" V 2800 5600 50  0000 L CNN
F 2 "" H 2688 5500 50  0000 C CNN
F 3 "" H 2650 5650 50  0000 C CNN
F 4 "C" H 2650 5650 50  0001 C CNN "Spice_Primitive"
F 5 "10p" H 2650 5650 50  0001 C CNN "Spice_Model"
F 6 "Y" H 2650 5650 50  0001 C CNN "Spice_Netlist_Enabled"
	1    2650 5650
	0    1    1    0   
$EndComp
$EndSCHEMATC
