(module XC3S200A-4VQG100I (layer F.Cu)
  (fp_text reference REF** (at 0 0) (layer F.SilkS)
    (effects (font (size 1 1) (thickness .15)))
  )
  (fp_text value 100-VQFP (at 0 0) (layer F.SilkS)
    (effects (font (size 1 1) (thickness .15)))
  )
  (fp_text user "Copyright 2016 Accelerated Designs. All rights reserved." (at 0 0) (layer Cmts.User)
    (effects (font (size .127 .127) (thickness .002)))
  )
  (fp_text user "*" (at -8.9916 -6.631) (layer F.SilkS)
    (effects (font (size 1 1) (thickness .15)))
  )
  (fp_text user "*" (at -6.6167 -6.25) (layer F.Fab)
    (effects (font (size 1 1) (thickness .15)))
  )
  (fp_text user "0.02in/0.5mm" (at 11.049 -5.75) (layer Dwgs.User)
    (effects (font (size 1 1) (thickness .15)))
  )
  (fp_text user "0.011in/0.279mm" (at 6 -11.049) (layer Dwgs.User)
    (effects (font (size 1 1) (thickness .15)))
  )
  (fp_text user "0.058in/1.473mm" (at 12.5857 -7.62) (layer Dwgs.User)
    (effects (font (size 1 1) (thickness .15)))
  )
  (fp_text user "0.6in/15.24mm" (at -12.5857 0) (layer Dwgs.User)
    (effects (font (size 1 1) (thickness .15)))
  )
  (fp_text user "0.6in/15.24mm" (at 0 12.319) (layer Dwgs.User)
    (effects (font (size 1 1) (thickness .15)))
  )
  (fp_text user "*" (at -8.9916 -6.631) (layer F.SilkS)
    (effects (font (size 1 1) (thickness .15)))
  )
  (fp_text user "*" (at -6.6167 -6.25) (layer F.Fab)
    (effects (font (size 1 1) (thickness .15)))
  )
  (fp_line (start 5.8603 -6.9977) (end 6.1397 -6.9977) (layer F.Fab) (width .1524))
  (fp_line (start 6.1397 -6.9977) (end 6.1397 -8.001) (layer F.Fab) (width .1524))
  (fp_line (start 6.1397 -8.001) (end 5.8603 -8.001) (layer F.Fab) (width .1524))
  (fp_line (start 5.8603 -8.001) (end 5.8603 -6.9977) (layer F.Fab) (width .1524))
  (fp_line (start 5.3603 -6.9977) (end 5.6397 -6.9977) (layer F.Fab) (width .1524))
  (fp_line (start 5.6397 -6.9977) (end 5.6397 -8.001) (layer F.Fab) (width .1524))
  (fp_line (start 5.6397 -8.001) (end 5.3603 -8.001) (layer F.Fab) (width .1524))
  (fp_line (start 5.3603 -8.001) (end 5.3603 -6.9977) (layer F.Fab) (width .1524))
  (fp_line (start 4.8603 -6.9977) (end 5.1397 -6.9977) (layer F.Fab) (width .1524))
  (fp_line (start 5.1397 -6.9977) (end 5.1397 -8.001) (layer F.Fab) (width .1524))
  (fp_line (start 5.1397 -8.001) (end 4.8603 -8.001) (layer F.Fab) (width .1524))
  (fp_line (start 4.8603 -8.001) (end 4.8603 -6.9977) (layer F.Fab) (width .1524))
  (fp_line (start 4.3603 -6.9977) (end 4.6397 -6.9977) (layer F.Fab) (width .1524))
  (fp_line (start 4.6397 -6.9977) (end 4.6397 -8.001) (layer F.Fab) (width .1524))
  (fp_line (start 4.6397 -8.001) (end 4.3603 -8.001) (layer F.Fab) (width .1524))
  (fp_line (start 4.3603 -8.001) (end 4.3603 -6.9977) (layer F.Fab) (width .1524))
  (fp_line (start 3.8603 -6.9977) (end 4.1397 -6.9977) (layer F.Fab) (width .1524))
  (fp_line (start 4.1397 -6.9977) (end 4.1397 -8.001) (layer F.Fab) (width .1524))
  (fp_line (start 4.1397 -8.001) (end 3.8603 -8.001) (layer F.Fab) (width .1524))
  (fp_line (start 3.8603 -8.001) (end 3.8603 -6.9977) (layer F.Fab) (width .1524))
  (fp_line (start 3.3603 -6.9977) (end 3.6397 -6.9977) (layer F.Fab) (width .1524))
  (fp_line (start 3.6397 -6.9977) (end 3.6397 -8.001) (layer F.Fab) (width .1524))
  (fp_line (start 3.6397 -8.001) (end 3.3603 -8.001) (layer F.Fab) (width .1524))
  (fp_line (start 3.3603 -8.001) (end 3.3603 -6.9977) (layer F.Fab) (width .1524))
  (fp_line (start 2.8603 -6.9977) (end 3.1397 -6.9977) (layer F.Fab) (width .1524))
  (fp_line (start 3.1397 -6.9977) (end 3.1397 -8.001) (layer F.Fab) (width .1524))
  (fp_line (start 3.1397 -8.001) (end 2.8603 -8.001) (layer F.Fab) (width .1524))
  (fp_line (start 2.8603 -8.001) (end 2.8603 -6.9977) (layer F.Fab) (width .1524))
  (fp_line (start 2.3603 -6.9977) (end 2.6397 -6.9977) (layer F.Fab) (width .1524))
  (fp_line (start 2.6397 -6.9977) (end 2.6397 -8.001) (layer F.Fab) (width .1524))
  (fp_line (start 2.6397 -8.001) (end 2.3603 -8.001) (layer F.Fab) (width .1524))
  (fp_line (start 2.3603 -8.001) (end 2.3603 -6.9977) (layer F.Fab) (width .1524))
  (fp_line (start 1.8603 -6.9977) (end 2.1397 -6.9977) (layer F.Fab) (width .1524))
  (fp_line (start 2.1397 -6.9977) (end 2.1397 -8.001) (layer F.Fab) (width .1524))
  (fp_line (start 2.1397 -8.001) (end 1.8603 -8.001) (layer F.Fab) (width .1524))
  (fp_line (start 1.8603 -8.001) (end 1.8603 -6.9977) (layer F.Fab) (width .1524))
  (fp_line (start 1.3603 -6.9977) (end 1.6397 -6.9977) (layer F.Fab) (width .1524))
  (fp_line (start 1.6397 -6.9977) (end 1.6397 -8.001) (layer F.Fab) (width .1524))
  (fp_line (start 1.6397 -8.001) (end 1.3603 -8.001) (layer F.Fab) (width .1524))
  (fp_line (start 1.3603 -8.001) (end 1.3603 -6.9977) (layer F.Fab) (width .1524))
  (fp_line (start .8603 -6.9977) (end 1.1397 -6.9977) (layer F.Fab) (width .1524))
  (fp_line (start 1.1397 -6.9977) (end 1.1397 -8.001) (layer F.Fab) (width .1524))
  (fp_line (start 1.1397 -8.001) (end .8603 -8.001) (layer F.Fab) (width .1524))
  (fp_line (start .8603 -8.001) (end .8603 -6.9977) (layer F.Fab) (width .1524))
  (fp_line (start .3603 -6.9977) (end .6397 -6.9977) (layer F.Fab) (width .1524))
  (fp_line (start .6397 -6.9977) (end .6397 -8.001) (layer F.Fab) (width .1524))
  (fp_line (start .6397 -8.001) (end .3603 -8.001) (layer F.Fab) (width .1524))
  (fp_line (start .3603 -8.001) (end .3603 -6.9977) (layer F.Fab) (width .1524))
  (fp_line (start -.1397 -6.9977) (end .1397 -6.9977) (layer F.Fab) (width .1524))
  (fp_line (start .1397 -6.9977) (end .1397 -8.001) (layer F.Fab) (width .1524))
  (fp_line (start .1397 -8.001) (end -.1397 -8.001) (layer F.Fab) (width .1524))
  (fp_line (start -.1397 -8.001) (end -.1397 -6.9977) (layer F.Fab) (width .1524))
  (fp_line (start -.6397 -6.9977) (end -.3603 -6.9977) (layer F.Fab) (width .1524))
  (fp_line (start -.3603 -6.9977) (end -.3603 -8.001) (layer F.Fab) (width .1524))
  (fp_line (start -.3603 -8.001) (end -.6397 -8.001) (layer F.Fab) (width .1524))
  (fp_line (start -.6397 -8.001) (end -.6397 -6.9977) (layer F.Fab) (width .1524))
  (fp_line (start -1.1397 -6.9977) (end -.8603 -6.9977) (layer F.Fab) (width .1524))
  (fp_line (start -.8603 -6.9977) (end -.8603 -8.001) (layer F.Fab) (width .1524))
  (fp_line (start -.8603 -8.001) (end -1.1397 -8.001) (layer F.Fab) (width .1524))
  (fp_line (start -1.1397 -8.001) (end -1.1397 -6.9977) (layer F.Fab) (width .1524))
  (fp_line (start -1.6397 -6.9977) (end -1.3603 -6.9977) (layer F.Fab) (width .1524))
  (fp_line (start -1.3603 -6.9977) (end -1.3603 -8.001) (layer F.Fab) (width .1524))
  (fp_line (start -1.3603 -8.001) (end -1.6397 -8.001) (layer F.Fab) (width .1524))
  (fp_line (start -1.6397 -8.001) (end -1.6397 -6.9977) (layer F.Fab) (width .1524))
  (fp_line (start -2.1397 -6.9977) (end -1.8603 -6.9977) (layer F.Fab) (width .1524))
  (fp_line (start -1.8603 -6.9977) (end -1.8603 -8.001) (layer F.Fab) (width .1524))
  (fp_line (start -1.8603 -8.001) (end -2.1397 -8.001) (layer F.Fab) (width .1524))
  (fp_line (start -2.1397 -8.001) (end -2.1397 -6.9977) (layer F.Fab) (width .1524))
  (fp_line (start -2.6397 -6.9977) (end -2.3603 -6.9977) (layer F.Fab) (width .1524))
  (fp_line (start -2.3603 -6.9977) (end -2.3603 -8.001) (layer F.Fab) (width .1524))
  (fp_line (start -2.3603 -8.001) (end -2.6397 -8.001) (layer F.Fab) (width .1524))
  (fp_line (start -2.6397 -8.001) (end -2.6397 -6.9977) (layer F.Fab) (width .1524))
  (fp_line (start -3.1397 -6.9977) (end -2.8603 -6.9977) (layer F.Fab) (width .1524))
  (fp_line (start -2.8603 -6.9977) (end -2.8603 -8.001) (layer F.Fab) (width .1524))
  (fp_line (start -2.8603 -8.001) (end -3.1397 -8.001) (layer F.Fab) (width .1524))
  (fp_line (start -3.1397 -8.001) (end -3.1397 -6.9977) (layer F.Fab) (width .1524))
  (fp_line (start -3.6397 -6.9977) (end -3.3603 -6.9977) (layer F.Fab) (width .1524))
  (fp_line (start -3.3603 -6.9977) (end -3.3603 -8.001) (layer F.Fab) (width .1524))
  (fp_line (start -3.3603 -8.001) (end -3.6397 -8.001) (layer F.Fab) (width .1524))
  (fp_line (start -3.6397 -8.001) (end -3.6397 -6.9977) (layer F.Fab) (width .1524))
  (fp_line (start -4.1397 -6.9977) (end -3.8603 -6.9977) (layer F.Fab) (width .1524))
  (fp_line (start -3.8603 -6.9977) (end -3.8603 -8.001) (layer F.Fab) (width .1524))
  (fp_line (start -3.8603 -8.001) (end -4.1397 -8.001) (layer F.Fab) (width .1524))
  (fp_line (start -4.1397 -8.001) (end -4.1397 -6.9977) (layer F.Fab) (width .1524))
  (fp_line (start -4.6397 -6.9977) (end -4.3603 -6.9977) (layer F.Fab) (width .1524))
  (fp_line (start -4.3603 -6.9977) (end -4.3603 -8.001) (layer F.Fab) (width .1524))
  (fp_line (start -4.3603 -8.001) (end -4.6397 -8.001) (layer F.Fab) (width .1524))
  (fp_line (start -4.6397 -8.001) (end -4.6397 -6.9977) (layer F.Fab) (width .1524))
  (fp_line (start -5.1397 -6.9977) (end -4.8603 -6.9977) (layer F.Fab) (width .1524))
  (fp_line (start -4.8603 -6.9977) (end -4.8603 -8.001) (layer F.Fab) (width .1524))
  (fp_line (start -4.8603 -8.001) (end -5.1397 -8.001) (layer F.Fab) (width .1524))
  (fp_line (start -5.1397 -8.001) (end -5.1397 -6.9977) (layer F.Fab) (width .1524))
  (fp_line (start -5.6397 -6.9977) (end -5.3603 -6.9977) (layer F.Fab) (width .1524))
  (fp_line (start -5.3603 -6.9977) (end -5.3603 -8.001) (layer F.Fab) (width .1524))
  (fp_line (start -5.3603 -8.001) (end -5.6397 -8.001) (layer F.Fab) (width .1524))
  (fp_line (start -5.6397 -8.001) (end -5.6397 -6.9977) (layer F.Fab) (width .1524))
  (fp_line (start -6.1397 -6.9977) (end -5.8603 -6.9977) (layer F.Fab) (width .1524))
  (fp_line (start -5.8603 -6.9977) (end -5.8603 -8.001) (layer F.Fab) (width .1524))
  (fp_line (start -5.8603 -8.001) (end -6.1397 -8.001) (layer F.Fab) (width .1524))
  (fp_line (start -6.1397 -8.001) (end -6.1397 -6.9977) (layer F.Fab) (width .1524))
  (fp_line (start -6.9977 -5.8603) (end -6.9977 -6.1397) (layer F.Fab) (width .1524))
  (fp_line (start -6.9977 -6.1397) (end -8.001 -6.1397) (layer F.Fab) (width .1524))
  (fp_line (start -8.001 -6.1397) (end -8.001 -5.8603) (layer F.Fab) (width .1524))
  (fp_line (start -8.001 -5.8603) (end -6.9977 -5.8603) (layer F.Fab) (width .1524))
  (fp_line (start -6.9977 -5.3603) (end -6.9977 -5.6397) (layer F.Fab) (width .1524))
  (fp_line (start -6.9977 -5.6397) (end -8.001 -5.6397) (layer F.Fab) (width .1524))
  (fp_line (start -8.001 -5.6397) (end -8.001 -5.3603) (layer F.Fab) (width .1524))
  (fp_line (start -8.001 -5.3603) (end -6.9977 -5.3603) (layer F.Fab) (width .1524))
  (fp_line (start -6.9977 -4.8603) (end -6.9977 -5.1397) (layer F.Fab) (width .1524))
  (fp_line (start -6.9977 -5.1397) (end -8.001 -5.1397) (layer F.Fab) (width .1524))
  (fp_line (start -8.001 -5.1397) (end -8.001 -4.8603) (layer F.Fab) (width .1524))
  (fp_line (start -8.001 -4.8603) (end -6.9977 -4.8603) (layer F.Fab) (width .1524))
  (fp_line (start -6.9977 -4.3603) (end -6.9977 -4.6397) (layer F.Fab) (width .1524))
  (fp_line (start -6.9977 -4.6397) (end -8.001 -4.6397) (layer F.Fab) (width .1524))
  (fp_line (start -8.001 -4.6397) (end -8.001 -4.3603) (layer F.Fab) (width .1524))
  (fp_line (start -8.001 -4.3603) (end -6.9977 -4.3603) (layer F.Fab) (width .1524))
  (fp_line (start -6.9977 -3.8603) (end -6.9977 -4.1397) (layer F.Fab) (width .1524))
  (fp_line (start -6.9977 -4.1397) (end -8.001 -4.1397) (layer F.Fab) (width .1524))
  (fp_line (start -8.001 -4.1397) (end -8.001 -3.8603) (layer F.Fab) (width .1524))
  (fp_line (start -8.001 -3.8603) (end -6.9977 -3.8603) (layer F.Fab) (width .1524))
  (fp_line (start -6.9977 -3.3603) (end -6.9977 -3.6397) (layer F.Fab) (width .1524))
  (fp_line (start -6.9977 -3.6397) (end -8.001 -3.6397) (layer F.Fab) (width .1524))
  (fp_line (start -8.001 -3.6397) (end -8.001 -3.3603) (layer F.Fab) (width .1524))
  (fp_line (start -8.001 -3.3603) (end -6.9977 -3.3603) (layer F.Fab) (width .1524))
  (fp_line (start -6.9977 -2.8603) (end -6.9977 -3.1397) (layer F.Fab) (width .1524))
  (fp_line (start -6.9977 -3.1397) (end -8.001 -3.1397) (layer F.Fab) (width .1524))
  (fp_line (start -8.001 -3.1397) (end -8.001 -2.8603) (layer F.Fab) (width .1524))
  (fp_line (start -8.001 -2.8603) (end -6.9977 -2.8603) (layer F.Fab) (width .1524))
  (fp_line (start -6.9977 -2.3603) (end -6.9977 -2.6397) (layer F.Fab) (width .1524))
  (fp_line (start -6.9977 -2.6397) (end -8.001 -2.6397) (layer F.Fab) (width .1524))
  (fp_line (start -8.001 -2.6397) (end -8.001 -2.3603) (layer F.Fab) (width .1524))
  (fp_line (start -8.001 -2.3603) (end -6.9977 -2.3603) (layer F.Fab) (width .1524))
  (fp_line (start -6.9977 -1.8603) (end -6.9977 -2.1397) (layer F.Fab) (width .1524))
  (fp_line (start -6.9977 -2.1397) (end -8.001 -2.1397) (layer F.Fab) (width .1524))
  (fp_line (start -8.001 -2.1397) (end -8.001 -1.8603) (layer F.Fab) (width .1524))
  (fp_line (start -8.001 -1.8603) (end -6.9977 -1.8603) (layer F.Fab) (width .1524))
  (fp_line (start -6.9977 -1.3603) (end -6.9977 -1.6397) (layer F.Fab) (width .1524))
  (fp_line (start -6.9977 -1.6397) (end -8.001 -1.6397) (layer F.Fab) (width .1524))
  (fp_line (start -8.001 -1.6397) (end -8.001 -1.3603) (layer F.Fab) (width .1524))
  (fp_line (start -8.001 -1.3603) (end -6.9977 -1.3603) (layer F.Fab) (width .1524))
  (fp_line (start -6.9977 -.8603) (end -6.9977 -1.1397) (layer F.Fab) (width .1524))
  (fp_line (start -6.9977 -1.1397) (end -8.001 -1.1397) (layer F.Fab) (width .1524))
  (fp_line (start -8.001 -1.1397) (end -8.001 -.8603) (layer F.Fab) (width .1524))
  (fp_line (start -8.001 -.8603) (end -6.9977 -.8603) (layer F.Fab) (width .1524))
  (fp_line (start -6.9977 -.3603) (end -6.9977 -.6397) (layer F.Fab) (width .1524))
  (fp_line (start -6.9977 -.6397) (end -8.001 -.6397) (layer F.Fab) (width .1524))
  (fp_line (start -8.001 -.6397) (end -8.001 -.3603) (layer F.Fab) (width .1524))
  (fp_line (start -8.001 -.3603) (end -6.9977 -.3603) (layer F.Fab) (width .1524))
  (fp_line (start -6.9977 .1397) (end -6.9977 -.1397) (layer F.Fab) (width .1524))
  (fp_line (start -6.9977 -.1397) (end -8.001 -.1397) (layer F.Fab) (width .1524))
  (fp_line (start -8.001 -.1397) (end -8.001 .1397) (layer F.Fab) (width .1524))
  (fp_line (start -8.001 .1397) (end -6.9977 .1397) (layer F.Fab) (width .1524))
  (fp_line (start -6.9977 .6397) (end -6.9977 .3603) (layer F.Fab) (width .1524))
  (fp_line (start -6.9977 .3603) (end -8.001 .3603) (layer F.Fab) (width .1524))
  (fp_line (start -8.001 .3603) (end -8.001 .6397) (layer F.Fab) (width .1524))
  (fp_line (start -8.001 .6397) (end -6.9977 .6397) (layer F.Fab) (width .1524))
  (fp_line (start -6.9977 1.1397) (end -6.9977 .8603) (layer F.Fab) (width .1524))
  (fp_line (start -6.9977 .8603) (end -8.001 .8603) (layer F.Fab) (width .1524))
  (fp_line (start -8.001 .8603) (end -8.001 1.1397) (layer F.Fab) (width .1524))
  (fp_line (start -8.001 1.1397) (end -6.9977 1.1397) (layer F.Fab) (width .1524))
  (fp_line (start -6.9977 1.6397) (end -6.9977 1.3603) (layer F.Fab) (width .1524))
  (fp_line (start -6.9977 1.3603) (end -8.001 1.3603) (layer F.Fab) (width .1524))
  (fp_line (start -8.001 1.3603) (end -8.001 1.6397) (layer F.Fab) (width .1524))
  (fp_line (start -8.001 1.6397) (end -6.9977 1.6397) (layer F.Fab) (width .1524))
  (fp_line (start -6.9977 2.1397) (end -6.9977 1.8603) (layer F.Fab) (width .1524))
  (fp_line (start -6.9977 1.8603) (end -8.001 1.8603) (layer F.Fab) (width .1524))
  (fp_line (start -8.001 1.8603) (end -8.001 2.1397) (layer F.Fab) (width .1524))
  (fp_line (start -8.001 2.1397) (end -6.9977 2.1397) (layer F.Fab) (width .1524))
  (fp_line (start -6.9977 2.6397) (end -6.9977 2.3603) (layer F.Fab) (width .1524))
  (fp_line (start -6.9977 2.3603) (end -8.001 2.3603) (layer F.Fab) (width .1524))
  (fp_line (start -8.001 2.3603) (end -8.001 2.6397) (layer F.Fab) (width .1524))
  (fp_line (start -8.001 2.6397) (end -6.9977 2.6397) (layer F.Fab) (width .1524))
  (fp_line (start -6.9977 3.1397) (end -6.9977 2.8603) (layer F.Fab) (width .1524))
  (fp_line (start -6.9977 2.8603) (end -8.001 2.8603) (layer F.Fab) (width .1524))
  (fp_line (start -8.001 2.8603) (end -8.001 3.1397) (layer F.Fab) (width .1524))
  (fp_line (start -8.001 3.1397) (end -6.9977 3.1397) (layer F.Fab) (width .1524))
  (fp_line (start -6.9977 3.6397) (end -6.9977 3.3603) (layer F.Fab) (width .1524))
  (fp_line (start -6.9977 3.3603) (end -8.001 3.3603) (layer F.Fab) (width .1524))
  (fp_line (start -8.001 3.3603) (end -8.001 3.6397) (layer F.Fab) (width .1524))
  (fp_line (start -8.001 3.6397) (end -6.9977 3.6397) (layer F.Fab) (width .1524))
  (fp_line (start -6.9977 4.1397) (end -6.9977 3.8603) (layer F.Fab) (width .1524))
  (fp_line (start -6.9977 3.8603) (end -8.001 3.8603) (layer F.Fab) (width .1524))
  (fp_line (start -8.001 3.8603) (end -8.001 4.1397) (layer F.Fab) (width .1524))
  (fp_line (start -8.001 4.1397) (end -6.9977 4.1397) (layer F.Fab) (width .1524))
  (fp_line (start -6.9977 4.6397) (end -6.9977 4.3603) (layer F.Fab) (width .1524))
  (fp_line (start -6.9977 4.3603) (end -8.001 4.3603) (layer F.Fab) (width .1524))
  (fp_line (start -8.001 4.3603) (end -8.001 4.6397) (layer F.Fab) (width .1524))
  (fp_line (start -8.001 4.6397) (end -6.9977 4.6397) (layer F.Fab) (width .1524))
  (fp_line (start -6.9977 5.1397) (end -6.9977 4.8603) (layer F.Fab) (width .1524))
  (fp_line (start -6.9977 4.8603) (end -8.001 4.8603) (layer F.Fab) (width .1524))
  (fp_line (start -8.001 4.8603) (end -8.001 5.1397) (layer F.Fab) (width .1524))
  (fp_line (start -8.001 5.1397) (end -6.9977 5.1397) (layer F.Fab) (width .1524))
  (fp_line (start -6.9977 5.6397) (end -6.9977 5.3603) (layer F.Fab) (width .1524))
  (fp_line (start -6.9977 5.3603) (end -8.001 5.3603) (layer F.Fab) (width .1524))
  (fp_line (start -8.001 5.3603) (end -8.001 5.6397) (layer F.Fab) (width .1524))
  (fp_line (start -8.001 5.6397) (end -6.9977 5.6397) (layer F.Fab) (width .1524))
  (fp_line (start -6.9977 6.1397) (end -6.9977 5.8603) (layer F.Fab) (width .1524))
  (fp_line (start -6.9977 5.8603) (end -8.001 5.8603) (layer F.Fab) (width .1524))
  (fp_line (start -8.001 5.8603) (end -8.001 6.1397) (layer F.Fab) (width .1524))
  (fp_line (start -8.001 6.1397) (end -6.9977 6.1397) (layer F.Fab) (width .1524))
  (fp_line (start -5.8603 6.9977) (end -6.1397 6.9977) (layer F.Fab) (width .1524))
  (fp_line (start -6.1397 6.9977) (end -6.1397 8.001) (layer F.Fab) (width .1524))
  (fp_line (start -6.1397 8.001) (end -5.8603 8.001) (layer F.Fab) (width .1524))
  (fp_line (start -5.8603 8.001) (end -5.8603 6.9977) (layer F.Fab) (width .1524))
  (fp_line (start -5.3603 6.9977) (end -5.6397 6.9977) (layer F.Fab) (width .1524))
  (fp_line (start -5.6397 6.9977) (end -5.6397 8.001) (layer F.Fab) (width .1524))
  (fp_line (start -5.6397 8.001) (end -5.3603 8.001) (layer F.Fab) (width .1524))
  (fp_line (start -5.3603 8.001) (end -5.3603 6.9977) (layer F.Fab) (width .1524))
  (fp_line (start -4.8603 6.9977) (end -5.1397 6.9977) (layer F.Fab) (width .1524))
  (fp_line (start -5.1397 6.9977) (end -5.1397 8.001) (layer F.Fab) (width .1524))
  (fp_line (start -5.1397 8.001) (end -4.8603 8.001) (layer F.Fab) (width .1524))
  (fp_line (start -4.8603 8.001) (end -4.8603 6.9977) (layer F.Fab) (width .1524))
  (fp_line (start -4.3603 6.9977) (end -4.6397 6.9977) (layer F.Fab) (width .1524))
  (fp_line (start -4.6397 6.9977) (end -4.6397 8.001) (layer F.Fab) (width .1524))
  (fp_line (start -4.6397 8.001) (end -4.3603 8.001) (layer F.Fab) (width .1524))
  (fp_line (start -4.3603 8.001) (end -4.3603 6.9977) (layer F.Fab) (width .1524))
  (fp_line (start -3.8603 6.9977) (end -4.1397 6.9977) (layer F.Fab) (width .1524))
  (fp_line (start -4.1397 6.9977) (end -4.1397 8.001) (layer F.Fab) (width .1524))
  (fp_line (start -4.1397 8.001) (end -3.8603 8.001) (layer F.Fab) (width .1524))
  (fp_line (start -3.8603 8.001) (end -3.8603 6.9977) (layer F.Fab) (width .1524))
  (fp_line (start -3.3603 6.9977) (end -3.6397 6.9977) (layer F.Fab) (width .1524))
  (fp_line (start -3.6397 6.9977) (end -3.6397 8.001) (layer F.Fab) (width .1524))
  (fp_line (start -3.6397 8.001) (end -3.3603 8.001) (layer F.Fab) (width .1524))
  (fp_line (start -3.3603 8.001) (end -3.3603 6.9977) (layer F.Fab) (width .1524))
  (fp_line (start -2.8603 6.9977) (end -3.1397 6.9977) (layer F.Fab) (width .1524))
  (fp_line (start -3.1397 6.9977) (end -3.1397 8.001) (layer F.Fab) (width .1524))
  (fp_line (start -3.1397 8.001) (end -2.8603 8.001) (layer F.Fab) (width .1524))
  (fp_line (start -2.8603 8.001) (end -2.8603 6.9977) (layer F.Fab) (width .1524))
  (fp_line (start -2.3603 6.9977) (end -2.6397 6.9977) (layer F.Fab) (width .1524))
  (fp_line (start -2.6397 6.9977) (end -2.6397 8.001) (layer F.Fab) (width .1524))
  (fp_line (start -2.6397 8.001) (end -2.3603 8.001) (layer F.Fab) (width .1524))
  (fp_line (start -2.3603 8.001) (end -2.3603 6.9977) (layer F.Fab) (width .1524))
  (fp_line (start -1.8603 6.9977) (end -2.1397 6.9977) (layer F.Fab) (width .1524))
  (fp_line (start -2.1397 6.9977) (end -2.1397 8.001) (layer F.Fab) (width .1524))
  (fp_line (start -2.1397 8.001) (end -1.8603 8.001) (layer F.Fab) (width .1524))
  (fp_line (start -1.8603 8.001) (end -1.8603 6.9977) (layer F.Fab) (width .1524))
  (fp_line (start -1.3603 6.9977) (end -1.6397 6.9977) (layer F.Fab) (width .1524))
  (fp_line (start -1.6397 6.9977) (end -1.6397 8.001) (layer F.Fab) (width .1524))
  (fp_line (start -1.6397 8.001) (end -1.3603 8.001) (layer F.Fab) (width .1524))
  (fp_line (start -1.3603 8.001) (end -1.3603 6.9977) (layer F.Fab) (width .1524))
  (fp_line (start -.8603 6.9977) (end -1.1397 6.9977) (layer F.Fab) (width .1524))
  (fp_line (start -1.1397 6.9977) (end -1.1397 8.001) (layer F.Fab) (width .1524))
  (fp_line (start -1.1397 8.001) (end -.8603 8.001) (layer F.Fab) (width .1524))
  (fp_line (start -.8603 8.001) (end -.8603 6.9977) (layer F.Fab) (width .1524))
  (fp_line (start -.3603 6.9977) (end -.6397 6.9977) (layer F.Fab) (width .1524))
  (fp_line (start -.6397 6.9977) (end -.6397 8.001) (layer F.Fab) (width .1524))
  (fp_line (start -.6397 8.001) (end -.3603 8.001) (layer F.Fab) (width .1524))
  (fp_line (start -.3603 8.001) (end -.3603 6.9977) (layer F.Fab) (width .1524))
  (fp_line (start .1397 6.9977) (end -.1397 6.9977) (layer F.Fab) (width .1524))
  (fp_line (start -.1397 6.9977) (end -.1397 8.001) (layer F.Fab) (width .1524))
  (fp_line (start -.1397 8.001) (end .1397 8.001) (layer F.Fab) (width .1524))
  (fp_line (start .1397 8.001) (end .1397 6.9977) (layer F.Fab) (width .1524))
  (fp_line (start .6397 6.9977) (end .3603 6.9977) (layer F.Fab) (width .1524))
  (fp_line (start .3603 6.9977) (end .3603 8.001) (layer F.Fab) (width .1524))
  (fp_line (start .3603 8.001) (end .6397 8.001) (layer F.Fab) (width .1524))
  (fp_line (start .6397 8.001) (end .6397 6.9977) (layer F.Fab) (width .1524))
  (fp_line (start 1.1397 6.9977) (end .8603 6.9977) (layer F.Fab) (width .1524))
  (fp_line (start .8603 6.9977) (end .8603 8.001) (layer F.Fab) (width .1524))
  (fp_line (start .8603 8.001) (end 1.1397 8.001) (layer F.Fab) (width .1524))
  (fp_line (start 1.1397 8.001) (end 1.1397 6.9977) (layer F.Fab) (width .1524))
  (fp_line (start 1.6397 6.9977) (end 1.3603 6.9977) (layer F.Fab) (width .1524))
  (fp_line (start 1.3603 6.9977) (end 1.3603 8.001) (layer F.Fab) (width .1524))
  (fp_line (start 1.3603 8.001) (end 1.6397 8.001) (layer F.Fab) (width .1524))
  (fp_line (start 1.6397 8.001) (end 1.6397 6.9977) (layer F.Fab) (width .1524))
  (fp_line (start 2.1397 6.9977) (end 1.8603 6.9977) (layer F.Fab) (width .1524))
  (fp_line (start 1.8603 6.9977) (end 1.8603 8.001) (layer F.Fab) (width .1524))
  (fp_line (start 1.8603 8.001) (end 2.1397 8.001) (layer F.Fab) (width .1524))
  (fp_line (start 2.1397 8.001) (end 2.1397 6.9977) (layer F.Fab) (width .1524))
  (fp_line (start 2.6397 6.9977) (end 2.3603 6.9977) (layer F.Fab) (width .1524))
  (fp_line (start 2.3603 6.9977) (end 2.3603 8.001) (layer F.Fab) (width .1524))
  (fp_line (start 2.3603 8.001) (end 2.6397 8.001) (layer F.Fab) (width .1524))
  (fp_line (start 2.6397 8.001) (end 2.6397 6.9977) (layer F.Fab) (width .1524))
  (fp_line (start 3.1397 6.9977) (end 2.8603 6.9977) (layer F.Fab) (width .1524))
  (fp_line (start 2.8603 6.9977) (end 2.8603 8.001) (layer F.Fab) (width .1524))
  (fp_line (start 2.8603 8.001) (end 3.1397 8.001) (layer F.Fab) (width .1524))
  (fp_line (start 3.1397 8.001) (end 3.1397 6.9977) (layer F.Fab) (width .1524))
  (fp_line (start 3.6397 6.9977) (end 3.3603 6.9977) (layer F.Fab) (width .1524))
  (fp_line (start 3.3603 6.9977) (end 3.3603 8.001) (layer F.Fab) (width .1524))
  (fp_line (start 3.3603 8.001) (end 3.6397 8.001) (layer F.Fab) (width .1524))
  (fp_line (start 3.6397 8.001) (end 3.6397 6.9977) (layer F.Fab) (width .1524))
  (fp_line (start 4.1397 6.9977) (end 3.8603 6.9977) (layer F.Fab) (width .1524))
  (fp_line (start 3.8603 6.9977) (end 3.8603 8.001) (layer F.Fab) (width .1524))
  (fp_line (start 3.8603 8.001) (end 4.1397 8.001) (layer F.Fab) (width .1524))
  (fp_line (start 4.1397 8.001) (end 4.1397 6.9977) (layer F.Fab) (width .1524))
  (fp_line (start 4.6397 6.9977) (end 4.3603 6.9977) (layer F.Fab) (width .1524))
  (fp_line (start 4.3603 6.9977) (end 4.3603 8.001) (layer F.Fab) (width .1524))
  (fp_line (start 4.3603 8.001) (end 4.6397 8.001) (layer F.Fab) (width .1524))
  (fp_line (start 4.6397 8.001) (end 4.6397 6.9977) (layer F.Fab) (width .1524))
  (fp_line (start 5.1397 6.9977) (end 4.8603 6.9977) (layer F.Fab) (width .1524))
  (fp_line (start 4.8603 6.9977) (end 4.8603 8.001) (layer F.Fab) (width .1524))
  (fp_line (start 4.8603 8.001) (end 5.1397 8.001) (layer F.Fab) (width .1524))
  (fp_line (start 5.1397 8.001) (end 5.1397 6.9977) (layer F.Fab) (width .1524))
  (fp_line (start 5.6397 6.9977) (end 5.3603 6.9977) (layer F.Fab) (width .1524))
  (fp_line (start 5.3603 6.9977) (end 5.3603 8.001) (layer F.Fab) (width .1524))
  (fp_line (start 5.3603 8.001) (end 5.6397 8.001) (layer F.Fab) (width .1524))
  (fp_line (start 5.6397 8.001) (end 5.6397 6.9977) (layer F.Fab) (width .1524))
  (fp_line (start 6.1397 6.9977) (end 5.8603 6.9977) (layer F.Fab) (width .1524))
  (fp_line (start 5.8603 6.9977) (end 5.8603 8.001) (layer F.Fab) (width .1524))
  (fp_line (start 5.8603 8.001) (end 6.1397 8.001) (layer F.Fab) (width .1524))
  (fp_line (start 6.1397 8.001) (end 6.1397 6.9977) (layer F.Fab) (width .1524))
  (fp_line (start 6.9977 5.8603) (end 6.9977 6.1397) (layer F.Fab) (width .1524))
  (fp_line (start 6.9977 6.1397) (end 8.001 6.1397) (layer F.Fab) (width .1524))
  (fp_line (start 8.001 6.1397) (end 8.001 5.8603) (layer F.Fab) (width .1524))
  (fp_line (start 8.001 5.8603) (end 6.9977 5.8603) (layer F.Fab) (width .1524))
  (fp_line (start 6.9977 5.3603) (end 6.9977 5.6397) (layer F.Fab) (width .1524))
  (fp_line (start 6.9977 5.6397) (end 8.001 5.6397) (layer F.Fab) (width .1524))
  (fp_line (start 8.001 5.6397) (end 8.001 5.3603) (layer F.Fab) (width .1524))
  (fp_line (start 8.001 5.3603) (end 6.9977 5.3603) (layer F.Fab) (width .1524))
  (fp_line (start 6.9977 4.8603) (end 6.9977 5.1397) (layer F.Fab) (width .1524))
  (fp_line (start 6.9977 5.1397) (end 8.001 5.1397) (layer F.Fab) (width .1524))
  (fp_line (start 8.001 5.1397) (end 8.001 4.8603) (layer F.Fab) (width .1524))
  (fp_line (start 8.001 4.8603) (end 6.9977 4.8603) (layer F.Fab) (width .1524))
  (fp_line (start 6.9977 4.3603) (end 6.9977 4.6397) (layer F.Fab) (width .1524))
  (fp_line (start 6.9977 4.6397) (end 8.001 4.6397) (layer F.Fab) (width .1524))
  (fp_line (start 8.001 4.6397) (end 8.001 4.3603) (layer F.Fab) (width .1524))
  (fp_line (start 8.001 4.3603) (end 6.9977 4.3603) (layer F.Fab) (width .1524))
  (fp_line (start 6.9977 3.8603) (end 6.9977 4.1397) (layer F.Fab) (width .1524))
  (fp_line (start 6.9977 4.1397) (end 8.001 4.1397) (layer F.Fab) (width .1524))
  (fp_line (start 8.001 4.1397) (end 8.001 3.8603) (layer F.Fab) (width .1524))
  (fp_line (start 8.001 3.8603) (end 6.9977 3.8603) (layer F.Fab) (width .1524))
  (fp_line (start 6.9977 3.3603) (end 6.9977 3.6397) (layer F.Fab) (width .1524))
  (fp_line (start 6.9977 3.6397) (end 8.001 3.6397) (layer F.Fab) (width .1524))
  (fp_line (start 8.001 3.6397) (end 8.001 3.3603) (layer F.Fab) (width .1524))
  (fp_line (start 8.001 3.3603) (end 6.9977 3.3603) (layer F.Fab) (width .1524))
  (fp_line (start 6.9977 2.8603) (end 6.9977 3.1397) (layer F.Fab) (width .1524))
  (fp_line (start 6.9977 3.1397) (end 8.001 3.1397) (layer F.Fab) (width .1524))
  (fp_line (start 8.001 3.1397) (end 8.001 2.8603) (layer F.Fab) (width .1524))
  (fp_line (start 8.001 2.8603) (end 6.9977 2.8603) (layer F.Fab) (width .1524))
  (fp_line (start 6.9977 2.3603) (end 6.9977 2.6397) (layer F.Fab) (width .1524))
  (fp_line (start 6.9977 2.6397) (end 8.001 2.6397) (layer F.Fab) (width .1524))
  (fp_line (start 8.001 2.6397) (end 8.001 2.3603) (layer F.Fab) (width .1524))
  (fp_line (start 8.001 2.3603) (end 6.9977 2.3603) (layer F.Fab) (width .1524))
  (fp_line (start 6.9977 1.8603) (end 6.9977 2.1397) (layer F.Fab) (width .1524))
  (fp_line (start 6.9977 2.1397) (end 8.001 2.1397) (layer F.Fab) (width .1524))
  (fp_line (start 8.001 2.1397) (end 8.001 1.8603) (layer F.Fab) (width .1524))
  (fp_line (start 8.001 1.8603) (end 6.9977 1.8603) (layer F.Fab) (width .1524))
  (fp_line (start 6.9977 1.3603) (end 6.9977 1.6397) (layer F.Fab) (width .1524))
  (fp_line (start 6.9977 1.6397) (end 8.001 1.6397) (layer F.Fab) (width .1524))
  (fp_line (start 8.001 1.6397) (end 8.001 1.3603) (layer F.Fab) (width .1524))
  (fp_line (start 8.001 1.3603) (end 6.9977 1.3603) (layer F.Fab) (width .1524))
  (fp_line (start 6.9977 .8603) (end 6.9977 1.1397) (layer F.Fab) (width .1524))
  (fp_line (start 6.9977 1.1397) (end 8.001 1.1397) (layer F.Fab) (width .1524))
  (fp_line (start 8.001 1.1397) (end 8.001 .8603) (layer F.Fab) (width .1524))
  (fp_line (start 8.001 .8603) (end 6.9977 .8603) (layer F.Fab) (width .1524))
  (fp_line (start 6.9977 .3603) (end 6.9977 .6397) (layer F.Fab) (width .1524))
  (fp_line (start 6.9977 .6397) (end 8.001 .6397) (layer F.Fab) (width .1524))
  (fp_line (start 8.001 .6397) (end 8.001 .3603) (layer F.Fab) (width .1524))
  (fp_line (start 8.001 .3603) (end 6.9977 .3603) (layer F.Fab) (width .1524))
  (fp_line (start 6.9977 -.1397) (end 6.9977 .1397) (layer F.Fab) (width .1524))
  (fp_line (start 6.9977 .1397) (end 8.001 .1397) (layer F.Fab) (width .1524))
  (fp_line (start 8.001 .1397) (end 8.001 -.1397) (layer F.Fab) (width .1524))
  (fp_line (start 8.001 -.1397) (end 6.9977 -.1397) (layer F.Fab) (width .1524))
  (fp_line (start 6.9977 -.6397) (end 6.9977 -.3603) (layer F.Fab) (width .1524))
  (fp_line (start 6.9977 -.3603) (end 8.001 -.3603) (layer F.Fab) (width .1524))
  (fp_line (start 8.001 -.3603) (end 8.001 -.6397) (layer F.Fab) (width .1524))
  (fp_line (start 8.001 -.6397) (end 6.9977 -.6397) (layer F.Fab) (width .1524))
  (fp_line (start 6.9977 -1.1397) (end 6.9977 -.8603) (layer F.Fab) (width .1524))
  (fp_line (start 6.9977 -.8603) (end 8.001 -.8603) (layer F.Fab) (width .1524))
  (fp_line (start 8.001 -.8603) (end 8.001 -1.1397) (layer F.Fab) (width .1524))
  (fp_line (start 8.001 -1.1397) (end 6.9977 -1.1397) (layer F.Fab) (width .1524))
  (fp_line (start 6.9977 -1.6397) (end 6.9977 -1.3603) (layer F.Fab) (width .1524))
  (fp_line (start 6.9977 -1.3603) (end 8.001 -1.3603) (layer F.Fab) (width .1524))
  (fp_line (start 8.001 -1.3603) (end 8.001 -1.6397) (layer F.Fab) (width .1524))
  (fp_line (start 8.001 -1.6397) (end 6.9977 -1.6397) (layer F.Fab) (width .1524))
  (fp_line (start 6.9977 -2.1397) (end 6.9977 -1.8603) (layer F.Fab) (width .1524))
  (fp_line (start 6.9977 -1.8603) (end 8.001 -1.8603) (layer F.Fab) (width .1524))
  (fp_line (start 8.001 -1.8603) (end 8.001 -2.1397) (layer F.Fab) (width .1524))
  (fp_line (start 8.001 -2.1397) (end 6.9977 -2.1397) (layer F.Fab) (width .1524))
  (fp_line (start 6.9977 -2.6397) (end 6.9977 -2.3603) (layer F.Fab) (width .1524))
  (fp_line (start 6.9977 -2.3603) (end 8.001 -2.3603) (layer F.Fab) (width .1524))
  (fp_line (start 8.001 -2.3603) (end 8.001 -2.6397) (layer F.Fab) (width .1524))
  (fp_line (start 8.001 -2.6397) (end 6.9977 -2.6397) (layer F.Fab) (width .1524))
  (fp_line (start 6.9977 -3.1397) (end 6.9977 -2.8603) (layer F.Fab) (width .1524))
  (fp_line (start 6.9977 -2.8603) (end 8.001 -2.8603) (layer F.Fab) (width .1524))
  (fp_line (start 8.001 -2.8603) (end 8.001 -3.1397) (layer F.Fab) (width .1524))
  (fp_line (start 8.001 -3.1397) (end 6.9977 -3.1397) (layer F.Fab) (width .1524))
  (fp_line (start 6.9977 -3.6397) (end 6.9977 -3.3603) (layer F.Fab) (width .1524))
  (fp_line (start 6.9977 -3.3603) (end 8.001 -3.3603) (layer F.Fab) (width .1524))
  (fp_line (start 8.001 -3.3603) (end 8.001 -3.6397) (layer F.Fab) (width .1524))
  (fp_line (start 8.001 -3.6397) (end 6.9977 -3.6397) (layer F.Fab) (width .1524))
  (fp_line (start 6.9977 -4.1397) (end 6.9977 -3.8603) (layer F.Fab) (width .1524))
  (fp_line (start 6.9977 -3.8603) (end 8.001 -3.8603) (layer F.Fab) (width .1524))
  (fp_line (start 8.001 -3.8603) (end 8.001 -4.1397) (layer F.Fab) (width .1524))
  (fp_line (start 8.001 -4.1397) (end 6.9977 -4.1397) (layer F.Fab) (width .1524))
  (fp_line (start 6.9977 -4.6397) (end 6.9977 -4.3603) (layer F.Fab) (width .1524))
  (fp_line (start 6.9977 -4.3603) (end 8.001 -4.3603) (layer F.Fab) (width .1524))
  (fp_line (start 8.001 -4.3603) (end 8.001 -4.6397) (layer F.Fab) (width .1524))
  (fp_line (start 8.001 -4.6397) (end 6.9977 -4.6397) (layer F.Fab) (width .1524))
  (fp_line (start 6.9977 -5.1397) (end 6.9977 -4.8603) (layer F.Fab) (width .1524))
  (fp_line (start 6.9977 -4.8603) (end 8.001 -4.8603) (layer F.Fab) (width .1524))
  (fp_line (start 8.001 -4.8603) (end 8.001 -5.1397) (layer F.Fab) (width .1524))
  (fp_line (start 8.001 -5.1397) (end 6.9977 -5.1397) (layer F.Fab) (width .1524))
  (fp_line (start 6.9977 -5.6397) (end 6.9977 -5.3603) (layer F.Fab) (width .1524))
  (fp_line (start 6.9977 -5.3603) (end 8.001 -5.3603) (layer F.Fab) (width .1524))
  (fp_line (start 8.001 -5.3603) (end 8.001 -5.6397) (layer F.Fab) (width .1524))
  (fp_line (start 8.001 -5.6397) (end 6.9977 -5.6397) (layer F.Fab) (width .1524))
  (fp_line (start 6.9977 -6.1397) (end 6.9977 -5.8603) (layer F.Fab) (width .1524))
  (fp_line (start 6.9977 -5.8603) (end 8.001 -5.8603) (layer F.Fab) (width .1524))
  (fp_line (start 8.001 -5.8603) (end 8.001 -6.1397) (layer F.Fab) (width .1524))
  (fp_line (start 8.001 -6.1397) (end 6.9977 -6.1397) (layer F.Fab) (width .1524))
  (fp_line (start -6.9977 -5.7277) (end -5.7277 -6.9977) (layer F.Fab) (width .1524))
  (fp_line (start -7.1247 7.1247) (end -6.472441 7.1247) (layer F.SilkS) (width .1524))
  (fp_line (start 7.1247 7.1247) (end 7.1247 6.472441) (layer F.SilkS) (width .1524))
  (fp_line (start 7.1247 -7.1247) (end 6.472441 -7.1247) (layer F.SilkS) (width .1524))
  (fp_line (start -7.1247 -7.1247) (end -7.1247 -6.472441) (layer F.SilkS) (width .1524))
  (fp_line (start -7.1247 6.472441) (end -7.1247 7.1247) (layer F.SilkS) (width .1524))
  (fp_line (start -6.9977 6.9977) (end 6.9977 6.9977) (layer F.Fab) (width .1524))
  (fp_line (start 6.9977 6.9977) (end 6.9977 6.9977) (layer F.Fab) (width .1524))
  (fp_line (start 6.9977 6.9977) (end 6.9977 -6.9977) (layer F.Fab) (width .1524))
  (fp_line (start 6.9977 -6.9977) (end 6.9977 -6.9977) (layer F.Fab) (width .1524))
  (fp_line (start 6.9977 -6.9977) (end -6.9977 -6.9977) (layer F.Fab) (width .1524))
  (fp_line (start -6.9977 -6.9977) (end -6.9977 -6.9977) (layer F.Fab) (width .1524))
  (fp_line (start -6.9977 -6.9977) (end -6.9977 6.9977) (layer F.Fab) (width .1524))
  (fp_line (start -6.9977 6.9977) (end -6.9977 6.9977) (layer F.Fab) (width .1524))
  (fp_line (start 6.472441 7.1247) (end 7.1247 7.1247) (layer F.SilkS) (width .1524))
  (fp_line (start 7.1247 -6.472441) (end 7.1247 -7.1247) (layer F.SilkS) (width .1524))
  (fp_line (start -6.472441 -7.1247) (end -7.1247 -7.1247) (layer F.SilkS) (width .1524))
  (fp_line (start -8.8646 -1.6905) (end -8.8646 -1.3095) (layer F.SilkS) (width .1524))
  (fp_line (start -8.8646 -1.3095) (end -8.6106 -1.3095) (layer F.SilkS) (width .1524))
  (fp_line (start -8.6106 -1.3095) (end -8.6106 -1.6905) (layer F.SilkS) (width .1524))
  (fp_line (start -8.6106 -1.6905) (end -8.8646 -1.6905) (layer F.SilkS) (width .1524))
  (fp_line (start -8.8646 3.309501) (end -8.8646 3.690501) (layer F.SilkS) (width .1524))
  (fp_line (start -8.8646 3.690501) (end -8.6106 3.690501) (layer F.SilkS) (width .1524))
  (fp_line (start -8.6106 3.690501) (end -8.6106 3.309501) (layer F.SilkS) (width .1524))
  (fp_line (start -8.6106 3.309501) (end -8.8646 3.309501) (layer F.SilkS) (width .1524))
  (fp_line (start -4.1905 8.6106) (end -4.1905 8.8646) (layer F.SilkS) (width .1524))
  (fp_line (start -4.1905 8.8646) (end -3.8095 8.8646) (layer F.SilkS) (width .1524))
  (fp_line (start -3.8095 8.8646) (end -3.8095 8.6106) (layer F.SilkS) (width .1524))
  (fp_line (start -3.8095 8.6106) (end -4.1905 8.6106) (layer F.SilkS) (width .1524))
  (fp_line (start .809501 8.6106) (end .809501 8.8646) (layer F.SilkS) (width .1524))
  (fp_line (start .809501 8.8646) (end 1.190501 8.8646) (layer F.SilkS) (width .1524))
  (fp_line (start 1.190501 8.8646) (end 1.190501 8.6106) (layer F.SilkS) (width .1524))
  (fp_line (start 1.190501 8.6106) (end .809501 8.6106) (layer F.SilkS) (width .1524))
  (fp_line (start 5.809501 8.6106) (end 5.809501 8.8646) (layer F.SilkS) (width .1524))
  (fp_line (start 5.809501 8.8646) (end 6.190501 8.8646) (layer F.SilkS) (width .1524))
  (fp_line (start 6.190501 8.8646) (end 6.190501 8.6106) (layer F.SilkS) (width .1524))
  (fp_line (start 6.190501 8.6106) (end 5.809501 8.6106) (layer F.SilkS) (width .1524))
  (fp_line (start 8.8646 1.3095) (end 8.8646 1.6905) (layer F.SilkS) (width .1524))
  (fp_line (start 8.8646 1.6905) (end 8.6106 1.6905) (layer F.SilkS) (width .1524))
  (fp_line (start 8.6106 1.6905) (end 8.6106 1.3095) (layer F.SilkS) (width .1524))
  (fp_line (start 8.6106 1.3095) (end 8.8646 1.3095) (layer F.SilkS) (width .1524))
  (fp_line (start 8.8646 -3.690501) (end 8.8646 -3.309501) (layer F.SilkS) (width .1524))
  (fp_line (start 8.8646 -3.309501) (end 8.6106 -3.309501) (layer F.SilkS) (width .1524))
  (fp_line (start 8.6106 -3.309501) (end 8.6106 -3.690501) (layer F.SilkS) (width .1524))
  (fp_line (start 8.6106 -3.690501) (end 8.8646 -3.690501) (layer F.SilkS) (width .1524))
  (fp_line (start 3.8095 -8.6106) (end 3.8095 -8.8646) (layer F.SilkS) (width .1524))
  (fp_line (start 3.8095 -8.8646) (end 4.1905 -8.8646) (layer F.SilkS) (width .1524))
  (fp_line (start 4.1905 -8.8646) (end 4.1905 -8.6106) (layer F.SilkS) (width .1524))
  (fp_line (start 4.1905 -8.6106) (end 3.8095 -8.6106) (layer F.SilkS) (width .1524))
  (fp_line (start -1.190501 -8.6106) (end -1.190501 -8.8646) (layer F.SilkS) (width .1524))
  (fp_line (start -1.190501 -8.8646) (end -.809501 -8.8646) (layer F.SilkS) (width .1524))
  (fp_line (start -.809501 -8.8646) (end -.809501 -8.6106) (layer F.SilkS) (width .1524))
  (fp_line (start -.809501 -8.6106) (end -1.190501 -8.6106) (layer F.SilkS) (width .1524))
  (fp_line (start -6.190501 -8.6106) (end -6.190501 -8.8646) (layer F.SilkS) (width .1524))
  (fp_line (start -6.190501 -8.8646) (end -5.809501 -8.8646) (layer F.SilkS) (width .1524))
  (fp_line (start -5.809501 -8.8646) (end -5.809501 -8.6106) (layer F.SilkS) (width .1524))
  (fp_line (start -5.809501 -8.6106) (end -6.190501 -8.6106) (layer F.SilkS) (width .1524))
  (fp_line (start -7.2517 7.2517) (end -7.2517 6.508) (layer F.CrtYd) (width .1524))
  (fp_line (start -7.2517 6.508) (end -8.6487 6.508) (layer F.CrtYd) (width .1524))
  (fp_line (start -8.6487 6.508) (end -8.6487 -6.508) (layer F.CrtYd) (width .1524))
  (fp_line (start -8.6487 -6.508) (end -7.2517 -6.508) (layer F.CrtYd) (width .1524))
  (fp_line (start -7.2517 -6.508) (end -7.2517 -7.2517) (layer F.CrtYd) (width .1524))
  (fp_line (start -7.2517 -7.2517) (end -6.508 -7.2517) (layer F.CrtYd) (width .1524))
  (fp_line (start -6.508 -7.2517) (end -6.508 -8.6487) (layer F.CrtYd) (width .1524))
  (fp_line (start -6.508 -8.6487) (end 6.508 -8.6487) (layer F.CrtYd) (width .1524))
  (fp_line (start 6.508 -8.6487) (end 6.508 -7.2517) (layer F.CrtYd) (width .1524))
  (fp_line (start 6.508 -7.2517) (end 7.2517 -7.2517) (layer F.CrtYd) (width .1524))
  (fp_line (start 7.2517 -7.2517) (end 7.2517 -6.508) (layer F.CrtYd) (width .1524))
  (fp_line (start 7.2517 -6.508) (end 8.6487 -6.508) (layer F.CrtYd) (width .1524))
  (fp_line (start 8.6487 -6.508) (end 8.6487 6.508) (layer F.CrtYd) (width .1524))
  (fp_line (start 8.6487 6.508) (end 7.2517 6.508) (layer F.CrtYd) (width .1524))
  (fp_line (start 7.2517 6.508) (end 7.2517 7.2517) (layer F.CrtYd) (width .1524))
  (fp_line (start 7.2517 7.2517) (end 6.508 7.2517) (layer F.CrtYd) (width .1524))
  (fp_line (start 6.508 7.2517) (end 6.508 8.6487) (layer F.CrtYd) (width .1524))
  (fp_line (start 6.508 8.6487) (end -6.508 8.6487) (layer F.CrtYd) (width .1524))
  (fp_line (start -6.508 8.6487) (end -6.508 7.2517) (layer F.CrtYd) (width .1524))
  (fp_line (start -6.508 7.2517) (end -7.2517 7.2517) (layer F.CrtYd) (width .1524))
  (pad 1 smd rect (at -7.62 -6.000001 90) (size .2794 1.4732) (layers F.Cu F.Paste F.Mask))
  (pad 2 smd rect (at -7.62 -5.499999 90) (size .2794 1.4732) (layers F.Cu F.Paste F.Mask))
  (pad 3 smd rect (at -7.62 -5 90) (size .2794 1.4732) (layers F.Cu F.Paste F.Mask))
  (pad 4 smd rect (at -7.62 -4.500001 90) (size .2794 1.4732) (layers F.Cu F.Paste F.Mask))
  (pad 5 smd rect (at -7.62 -4 90) (size .2794 1.4732) (layers F.Cu F.Paste F.Mask))
  (pad 6 smd rect (at -7.62 -3.500001 90) (size .2794 1.4732) (layers F.Cu F.Paste F.Mask))
  (pad 7 smd rect (at -7.62 -2.999999 90) (size .2794 1.4732) (layers F.Cu F.Paste F.Mask))
  (pad 8 smd rect (at -7.62 -2.5 90) (size .2794 1.4732) (layers F.Cu F.Paste F.Mask))
  (pad 9 smd rect (at -7.62 -2.000001 90) (size .2794 1.4732) (layers F.Cu F.Paste F.Mask))
  (pad 10 smd rect (at -7.62 -1.5 90) (size .2794 1.4732) (layers F.Cu F.Paste F.Mask))
  (pad 11 smd rect (at -7.62 -1.000001 90) (size .2794 1.4732) (layers F.Cu F.Paste F.Mask))
  (pad 12 smd rect (at -7.62 -.500002 90) (size .2794 1.4732) (layers F.Cu F.Paste F.Mask))
  (pad 13 smd rect (at -7.62 0 90) (size .2794 1.4732) (layers F.Cu F.Paste F.Mask))
  (pad 14 smd rect (at -7.62 .499999 90) (size .2794 1.4732) (layers F.Cu F.Paste F.Mask))
  (pad 15 smd rect (at -7.62 1.000001 90) (size .2794 1.4732) (layers F.Cu F.Paste F.Mask))
  (pad 16 smd rect (at -7.62 1.5 90) (size .2794 1.4732) (layers F.Cu F.Paste F.Mask))
  (pad 17 smd rect (at -7.62 1.999999 90) (size .2794 1.4732) (layers F.Cu F.Paste F.Mask))
  (pad 18 smd rect (at -7.62 2.5 90) (size .2794 1.4732) (layers F.Cu F.Paste F.Mask))
  (pad 19 smd rect (at -7.62 2.999999 90) (size .2794 1.4732) (layers F.Cu F.Paste F.Mask))
  (pad 20 smd rect (at -7.62 3.500001 90) (size .2794 1.4732) (layers F.Cu F.Paste F.Mask))
  (pad 21 smd rect (at -7.62 4 90) (size .2794 1.4732) (layers F.Cu F.Paste F.Mask))
  (pad 22 smd rect (at -7.62 4.499999 90) (size .2794 1.4732) (layers F.Cu F.Paste F.Mask))
  (pad 23 smd rect (at -7.62 5 90) (size .2794 1.4732) (layers F.Cu F.Paste F.Mask))
  (pad 24 smd rect (at -7.62 5.499999 90) (size .2794 1.4732) (layers F.Cu F.Paste F.Mask))
  (pad 25 smd rect (at -7.62 6.000001 90) (size .2794 1.4732) (layers F.Cu F.Paste F.Mask))
  (pad 26 smd rect (at -6.000001 7.62) (size .2794 1.4732) (layers F.Cu F.Paste F.Mask))
  (pad 27 smd rect (at -5.499999 7.62) (size .2794 1.4732) (layers F.Cu F.Paste F.Mask))
  (pad 28 smd rect (at -5 7.62) (size .2794 1.4732) (layers F.Cu F.Paste F.Mask))
  (pad 29 smd rect (at -4.500001 7.62) (size .2794 1.4732) (layers F.Cu F.Paste F.Mask))
  (pad 30 smd rect (at -4 7.62) (size .2794 1.4732) (layers F.Cu F.Paste F.Mask))
  (pad 31 smd rect (at -3.500001 7.62) (size .2794 1.4732) (layers F.Cu F.Paste F.Mask))
  (pad 32 smd rect (at -2.999999 7.62) (size .2794 1.4732) (layers F.Cu F.Paste F.Mask))
  (pad 33 smd rect (at -2.5 7.62) (size .2794 1.4732) (layers F.Cu F.Paste F.Mask))
  (pad 34 smd rect (at -2.000001 7.62) (size .2794 1.4732) (layers F.Cu F.Paste F.Mask))
  (pad 35 smd rect (at -1.5 7.62) (size .2794 1.4732) (layers F.Cu F.Paste F.Mask))
  (pad 36 smd rect (at -1.000001 7.62) (size .2794 1.4732) (layers F.Cu F.Paste F.Mask))
  (pad 37 smd rect (at -.499999 7.62) (size .2794 1.4732) (layers F.Cu F.Paste F.Mask))
  (pad 38 smd rect (at 0 7.62) (size .2794 1.4732) (layers F.Cu F.Paste F.Mask))
  (pad 39 smd rect (at .499999 7.62) (size .2794 1.4732) (layers F.Cu F.Paste F.Mask))
  (pad 40 smd rect (at 1.000001 7.62) (size .2794 1.4732) (layers F.Cu F.Paste F.Mask))
  (pad 41 smd rect (at 1.5 7.62) (size .2794 1.4732) (layers F.Cu F.Paste F.Mask))
  (pad 42 smd rect (at 2.000001 7.62) (size .2794 1.4732) (layers F.Cu F.Paste F.Mask))
  (pad 43 smd rect (at 2.5 7.62) (size .2794 1.4732) (layers F.Cu F.Paste F.Mask))
  (pad 44 smd rect (at 2.999999 7.62) (size .2794 1.4732) (layers F.Cu F.Paste F.Mask))
  (pad 45 smd rect (at 3.500001 7.62) (size .2794 1.4732) (layers F.Cu F.Paste F.Mask))
  (pad 46 smd rect (at 4 7.62) (size .2794 1.4732) (layers F.Cu F.Paste F.Mask))
  (pad 47 smd rect (at 4.500001 7.62) (size .2794 1.4732) (layers F.Cu F.Paste F.Mask))
  (pad 48 smd rect (at 5 7.62) (size .2794 1.4732) (layers F.Cu F.Paste F.Mask))
  (pad 49 smd rect (at 5.499999 7.62) (size .2794 1.4732) (layers F.Cu F.Paste F.Mask))
  (pad 50 smd rect (at 6.000001 7.62) (size .2794 1.4732) (layers F.Cu F.Paste F.Mask))
  (pad 51 smd rect (at 7.62 6.000001 90) (size .2794 1.4732) (layers F.Cu F.Paste F.Mask))
  (pad 52 smd rect (at 7.62 5.499999 90) (size .2794 1.4732) (layers F.Cu F.Paste F.Mask))
  (pad 53 smd rect (at 7.62 5 90) (size .2794 1.4732) (layers F.Cu F.Paste F.Mask))
  (pad 54 smd rect (at 7.62 4.500001 90) (size .2794 1.4732) (layers F.Cu F.Paste F.Mask))
  (pad 55 smd rect (at 7.62 4 90) (size .2794 1.4732) (layers F.Cu F.Paste F.Mask))
  (pad 56 smd rect (at 7.62 3.500001 90) (size .2794 1.4732) (layers F.Cu F.Paste F.Mask))
  (pad 57 smd rect (at 7.62 2.999999 90) (size .2794 1.4732) (layers F.Cu F.Paste F.Mask))
  (pad 58 smd rect (at 7.62 2.5 90) (size .2794 1.4732) (layers F.Cu F.Paste F.Mask))
  (pad 59 smd rect (at 7.62 2.000001 90) (size .2794 1.4732) (layers F.Cu F.Paste F.Mask))
  (pad 60 smd rect (at 7.62 1.5 90) (size .2794 1.4732) (layers F.Cu F.Paste F.Mask))
  (pad 61 smd rect (at 7.62 1.000001 90) (size .2794 1.4732) (layers F.Cu F.Paste F.Mask))
  (pad 62 smd rect (at 7.62 .499999 90) (size .2794 1.4732) (layers F.Cu F.Paste F.Mask))
  (pad 63 smd rect (at 7.62 0 90) (size .2794 1.4732) (layers F.Cu F.Paste F.Mask))
  (pad 64 smd rect (at 7.62 -.499999 90) (size .2794 1.4732) (layers F.Cu F.Paste F.Mask))
  (pad 65 smd rect (at 7.62 -1.000001 90) (size .2794 1.4732) (layers F.Cu F.Paste F.Mask))
  (pad 66 smd rect (at 7.62 -1.5 90) (size .2794 1.4732) (layers F.Cu F.Paste F.Mask))
  (pad 67 smd rect (at 7.62 -2.000001 90) (size .2794 1.4732) (layers F.Cu F.Paste F.Mask))
  (pad 68 smd rect (at 7.62 -2.5 90) (size .2794 1.4732) (layers F.Cu F.Paste F.Mask))
  (pad 69 smd rect (at 7.62 -2.999999 90) (size .2794 1.4732) (layers F.Cu F.Paste F.Mask))
  (pad 70 smd rect (at 7.62 -3.500001 90) (size .2794 1.4732) (layers F.Cu F.Paste F.Mask))
  (pad 71 smd rect (at 7.62 -4 90) (size .2794 1.4732) (layers F.Cu F.Paste F.Mask))
  (pad 72 smd rect (at 7.62 -4.500001 90) (size .2794 1.4732) (layers F.Cu F.Paste F.Mask))
  (pad 73 smd rect (at 7.62 -5 90) (size .2794 1.4732) (layers F.Cu F.Paste F.Mask))
  (pad 74 smd rect (at 7.62 -5.499999 90) (size .2794 1.4732) (layers F.Cu F.Paste F.Mask))
  (pad 75 smd rect (at 7.62 -6.000001 90) (size .2794 1.4732) (layers F.Cu F.Paste F.Mask))
  (pad 76 smd rect (at 6.000001 -7.62) (size .2794 1.4732) (layers F.Cu F.Paste F.Mask))
  (pad 77 smd rect (at 5.499999 -7.62) (size .2794 1.4732) (layers F.Cu F.Paste F.Mask))
  (pad 78 smd rect (at 5 -7.62) (size .2794 1.4732) (layers F.Cu F.Paste F.Mask))
  (pad 79 smd rect (at 4.500001 -7.62) (size .2794 1.4732) (layers F.Cu F.Paste F.Mask))
  (pad 80 smd rect (at 4 -7.62) (size .2794 1.4732) (layers F.Cu F.Paste F.Mask))
  (pad 81 smd rect (at 3.500001 -7.62) (size .2794 1.4732) (layers F.Cu F.Paste F.Mask))
  (pad 82 smd rect (at 2.999999 -7.62) (size .2794 1.4732) (layers F.Cu F.Paste F.Mask))
  (pad 83 smd rect (at 2.5 -7.62) (size .2794 1.4732) (layers F.Cu F.Paste F.Mask))
  (pad 84 smd rect (at 2.000001 -7.62) (size .2794 1.4732) (layers F.Cu F.Paste F.Mask))
  (pad 85 smd rect (at 1.5 -7.62) (size .2794 1.4732) (layers F.Cu F.Paste F.Mask))
  (pad 86 smd rect (at 1.000001 -7.62) (size .2794 1.4732) (layers F.Cu F.Paste F.Mask))
  (pad 87 smd rect (at .499999 -7.62) (size .2794 1.4732) (layers F.Cu F.Paste F.Mask))
  (pad 88 smd rect (at 0 -7.62) (size .2794 1.4732) (layers F.Cu F.Paste F.Mask))
  (pad 89 smd rect (at -.499999 -7.62) (size .2794 1.4732) (layers F.Cu F.Paste F.Mask))
  (pad 90 smd rect (at -1.000001 -7.62) (size .2794 1.4732) (layers F.Cu F.Paste F.Mask))
  (pad 91 smd rect (at -1.5 -7.62) (size .2794 1.4732) (layers F.Cu F.Paste F.Mask))
  (pad 92 smd rect (at -2.000001 -7.62) (size .2794 1.4732) (layers F.Cu F.Paste F.Mask))
  (pad 93 smd rect (at -2.5 -7.62) (size .2794 1.4732) (layers F.Cu F.Paste F.Mask))
  (pad 94 smd rect (at -2.999999 -7.62) (size .2794 1.4732) (layers F.Cu F.Paste F.Mask))
  (pad 95 smd rect (at -3.500001 -7.62) (size .2794 1.4732) (layers F.Cu F.Paste F.Mask))
  (pad 96 smd rect (at -4 -7.62) (size .2794 1.4732) (layers F.Cu F.Paste F.Mask))
  (pad 97 smd rect (at -4.500001 -7.62) (size .2794 1.4732) (layers F.Cu F.Paste F.Mask))
  (pad 98 smd rect (at -5 -7.62) (size .2794 1.4732) (layers F.Cu F.Paste F.Mask))
  (pad 99 smd rect (at -5.499999 -7.62) (size .2794 1.4732) (layers F.Cu F.Paste F.Mask))
  (pad 100 smd rect (at -6.000001 -7.62) (size .2794 1.4732) (layers F.Cu F.Paste F.Mask))
)
