EESchema Schematic File Version 4
EELAYER 30 0
EELAYER END
$Descr A4 11693 8268
encoding utf-8
Sheet 3 8
Title ""
Date ""
Rev ""
Comp ""
Comment1 ""
Comment2 ""
Comment3 ""
Comment4 ""
$EndDescr
$Comp
L eec:XC6SLX45T-3FGG484C U1
U 2 1 5FBD57E5
P 10250 2350
AR Path="/5FA6AAAC/5FBD57E5" Ref="U1"  Part="2" 
AR Path="/5FAA35AC/5FBD57E5" Ref="U?"  Part="2" 
AR Path="/5FAA415F/5FBD57E5" Ref="U?"  Part="2" 
AR Path="/5FAA4937/5FBD57E5" Ref="U?"  Part="2" 
AR Path="/5FAA5116/5FBD57E5" Ref="U?"  Part="2" 
AR Path="/5FAA58F5/5FBD57E5" Ref="U?"  Part="2" 
F 0 "U1" V 11304 -6478 50  0000 R CNN
F 1 "XC6SLX45T-3FGG484C" V 11395 -6478 50  0000 R CNN
F 2 "Xilinx-XC6SLX45T-3FGG484C-0-0-*" H 10250 2750 50  0001 L CNN
F 3 "https://www.xilinx.com/support/documentation/data_sheets/ds162.pdf" H 10250 2850 50  0001 L CNN
F 4 "510-00002" H 10250 2950 50  0001 L CNN "3DS Part Number"
F 5 "33.408KB" H 10250 3050 50  0001 L CNN "RAM size"
F 6 "+150°C" H 10250 3150 50  0001 L CNN "ambient temperature range high"
F 7 "-65°C" H 10250 3250 50  0001 L CNN "ambient temperature range low"
F 8 "IC" H 10250 3350 50  0001 L CNN "category"
F 9 "Integrated Circuits (ICs)" H 10250 3450 50  0001 L CNN "device class L1"
F 10 "Embedded Processors and Controllers" H 10250 3550 50  0001 L CNN "device class L2"
F 11 "FPGAs - Field Programmable Gate Arrays" H 10250 3650 50  0001 L CNN "device class L3"
F 12 "IC FPGA 296 I/O 484FBGA" H 10250 3750 50  0001 L CNN "digikey description"
F 13 "122-1737-ND" H 10250 3850 50  0001 L CNN "digikey part number"
F 14 "https://www.xilinx.com/support/documentation/user_guides/ug475_7Series_Pkg_Pinout.pdf" H 10250 3950 50  0001 L CNN "footprint url"
F 15 "2.6mm" H 10250 4050 50  0001 L CNN "height"
F 16 "BGA484N100P22X22_2300X2300X220" H 10250 4150 50  0001 L CNN "ipc land pattern name"
F 17 "yes" H 10250 4250 50  0001 L CNN "lead free"
F 18 "17105ea8e2290cff" H 10250 4350 50  0001 L CNN "library id"
F 19 "Xilinx" H 10250 4450 50  0001 L CNN "manufacturer"
F 20 "+125°C" H 10250 4550 50  0001 L CNN "max junction temp"
F 21 "RAM" H 10250 4650 50  0001 L CNN "memory type"
F 22 "296" H 10250 4750 50  0001 L CNN "number of I/Os"
F 23 "3411" H 10250 4850 50  0001 L CNN "number of logic blocks"
F 24 "43661" H 10250 4950 50  0001 L CNN "number of logic elements cells"
F 25 "54576" H 10250 5050 50  0001 L CNN "number of registers"
F 26 "FBGA484" H 10250 5150 50  0001 L CNN "package"
F 27 "yes" H 10250 5250 50  0001 L CNN "rohs"
F 28 "3" H 10250 5350 50  0001 L CNN "speed grade"
F 29 "+85°C" H 10250 5450 50  0001 L CNN "temperature range high"
F 30 "0°C" H 10250 5550 50  0001 L CNN "temperature range low"
	2    10250 2350
	0    1    1    0   
$EndComp
$EndSCHEMATC
