EESchema Schematic File Version 4
EELAYER 30 0
EELAYER END
$Descr A4 11693 8268
encoding utf-8
Sheet 1 1
Title ""
Date ""
Rev ""
Comp ""
Comment1 ""
Comment2 ""
Comment3 ""
Comment4 ""
$EndDescr
$Comp
L Device:R R3
U 1 1 5F90A0EE
P 5250 3700
F 0 "R3" V 5043 3700 50  0000 C CNN
F 1 "10k" V 5134 3700 50  0000 C CNN
F 2 "" V 5180 3700 50  0001 C CNN
F 3 "~" H 5250 3700 50  0001 C CNN
F 4 "R" H 5250 3700 50  0001 C CNN "Spice_Primitive"
F 5 "10k" H 5250 3700 50  0001 C CNN "Spice_Model"
F 6 "Y" H 5250 3700 50  0001 C CNN "Spice_Netlist_Enabled"
	1    5250 3700
	0    1    1    0   
$EndComp
$Comp
L Device:R R4
U 1 1 5F90AEAF
P 4900 3700
F 0 "R4" V 4693 3700 50  0000 C CNN
F 1 "10k" V 4784 3700 50  0000 C CNN
F 2 "" V 4830 3700 50  0001 C CNN
F 3 "~" H 4900 3700 50  0001 C CNN
	1    4900 3700
	0    1    1    0   
$EndComp
$Comp
L Device:R R1
U 1 1 5F90B380
P 5650 4250
F 0 "R1" H 5720 4296 50  0000 L CNN
F 1 "10k" H 5720 4205 50  0000 L CNN
F 2 "" V 5580 4250 50  0001 C CNN
F 3 "~" H 5650 4250 50  0001 C CNN
F 4 "R" H 5650 4250 50  0001 C CNN "Spice_Primitive"
F 5 "10k" H 5650 4250 50  0001 C CNN "Spice_Model"
F 6 "Y" H 5650 4250 50  0001 C CNN "Spice_Netlist_Enabled"
	1    5650 4250
	1    0    0    -1  
$EndComp
$Comp
L Device:R R2
U 1 1 5F90BA51
P 6050 4550
F 0 "R2" V 5950 4550 50  0000 C CNN
F 1 "10k" V 6150 4550 50  0000 C CNN
F 2 "" V 5980 4550 50  0001 C CNN
F 3 "~" H 6050 4550 50  0001 C CNN
F 4 "R" H 6050 4550 50  0001 C CNN "Spice_Primitive"
F 5 "10k" H 6050 4550 50  0001 C CNN "Spice_Model"
F 6 "Y" H 6050 4550 50  0001 C CNN "Spice_Netlist_Enabled"
	1    6050 4550
	0    1    1    0   
$EndComp
$Comp
L Device:C C1
U 1 1 5F90CB53
P 5400 3850
F 0 "C1" H 5515 3896 50  0000 L CNN
F 1 "1n" H 5515 3805 50  0000 L CNN
F 2 "" H 5438 3700 50  0001 C CNN
F 3 "~" H 5400 3850 50  0001 C CNN
F 4 "C" H 5400 3850 50  0001 C CNN "Spice_Primitive"
F 5 "1n" H 5400 3850 50  0001 C CNN "Spice_Model"
F 6 "Y" H 5400 3850 50  0001 C CNN "Spice_Netlist_Enabled"
	1    5400 3850
	1    0    0    -1  
$EndComp
$Comp
L Device:C C2
U 1 1 5F90D70D
P 5500 3200
F 0 "C2" V 5248 3200 50  0000 C CNN
F 1 "1n" V 5339 3200 50  0000 C CNN
F 2 "" H 5538 3050 50  0001 C CNN
F 3 "~" H 5500 3200 50  0001 C CNN
F 4 "C" H 5500 3200 50  0001 C CNN "Spice_Primitive"
F 5 "1n" H 5500 3200 50  0001 C CNN "Spice_Model"
F 6 "Y" H 5500 3200 50  0001 C CNN "Spice_Netlist_Enabled"
	1    5500 3200
	0    1    1    0   
$EndComp
Wire Wire Line
	5650 3200 6400 3200
Wire Wire Line
	6400 3200 6400 3800
Wire Wire Line
	5350 3200 5050 3200
Wire Wire Line
	5050 3200 5050 3700
Wire Wire Line
	5050 3700 5100 3700
Connection ~ 5050 3700
Wire Wire Line
	5400 3700 5800 3700
Connection ~ 5400 3700
Wire Wire Line
	5650 3900 5800 3900
Wire Wire Line
	5850 4550 5900 4550
Wire Wire Line
	6200 4550 6400 4550
Wire Wire Line
	6400 4550 6400 3800
Connection ~ 6400 3800
$Comp
L power:GND #PWR05
U 1 1 5F91028F
P 5650 4400
F 0 "#PWR05" H 5650 4150 50  0001 C CNN
F 1 "GND" H 5655 4227 50  0000 C CNN
F 2 "" H 5650 4400 50  0001 C CNN
F 3 "" H 5650 4400 50  0001 C CNN
	1    5650 4400
	1    0    0    -1  
$EndComp
$Comp
L power:GND #PWR04
U 1 1 5F910665
P 5400 4000
F 0 "#PWR04" H 5400 3750 50  0001 C CNN
F 1 "GND" H 5405 3827 50  0000 C CNN
F 2 "" H 5400 4000 50  0001 C CNN
F 3 "" H 5400 4000 50  0001 C CNN
	1    5400 4000
	1    0    0    -1  
$EndComp
$Comp
L power:GND #PWR08
U 1 1 5F924EF5
P 4450 4350
F 0 "#PWR08" H 4450 4100 50  0001 C CNN
F 1 "GND" H 4455 4177 50  0000 C CNN
F 2 "" H 4450 4350 50  0001 C CNN
F 3 "" H 4450 4350 50  0001 C CNN
	1    4450 4350
	1    0    0    -1  
$EndComp
Wire Wire Line
	4450 3700 4750 3700
Wire Wire Line
	4450 4350 4450 4300
Wire Wire Line
	6400 3800 7000 3800
$Comp
L Device:R R5
U 1 1 5F943F9E
P 7000 4050
F 0 "R5" H 7070 4096 50  0000 L CNN
F 1 "1k" H 7070 4005 50  0000 L CNN
F 2 "" V 6930 4050 50  0001 C CNN
F 3 "~" H 7000 4050 50  0001 C CNN
F 4 "R" H 7000 4050 50  0001 C CNN "Spice_Primitive"
F 5 "1k" H 7000 4050 50  0001 C CNN "Spice_Model"
F 6 "Y" H 7000 4050 50  0001 C CNN "Spice_Netlist_Enabled"
	1    7000 4050
	1    0    0    -1  
$EndComp
$Comp
L power:GND #PWR02
U 1 1 5F9447C9
P 7000 4250
F 0 "#PWR02" H 7000 4000 50  0001 C CNN
F 1 "GND" H 7005 4077 50  0000 C CNN
F 2 "" H 7000 4250 50  0001 C CNN
F 3 "" H 7000 4250 50  0001 C CNN
	1    7000 4250
	1    0    0    -1  
$EndComp
Wire Wire Line
	7000 4200 7000 4250
Wire Wire Line
	6000 3400 6000 3500
$Comp
L pspice:VSOURCE V1
U 1 1 5F924621
P 4450 4000
F 0 "V1" H 4678 4046 50  0000 L CNN
F 1 "VSOURCE" H 4678 3955 50  0000 L CNN
F 2 "" H 4450 4000 50  0001 C CNN
F 3 "~" H 4450 4000 50  0001 C CNN
F 4 "V" H 4450 4000 50  0001 C CNN "Spice_Primitive"
F 5 "dc 0 ac 1 0 pulse(0 0 0 0 0 0 0)" H 4450 4000 50  0001 C CNN "Spice_Model"
F 6 "Y" H 4450 4000 50  0001 C CNN "Spice_Netlist_Enabled"
	1    4450 4000
	1    0    0    -1  
$EndComp
Wire Wire Line
	2950 4100 2950 4050
$Comp
L power:PWR_FLAG #FLG0101
U 1 1 5F991330
P 2950 4750
F 0 "#FLG0101" H 2950 4825 50  0001 C CNN
F 1 "PWR_FLAG" V 2950 4878 50  0000 L CNN
F 2 "" H 2950 4750 50  0001 C CNN
F 3 "~" H 2950 4750 50  0001 C CNN
	1    2950 4750
	0    1    1    0   
$EndComp
$Comp
L power:PWR_FLAG #FLG0102
U 1 1 5F991ED2
P 2950 4050
F 0 "#FLG0102" H 2950 4125 50  0001 C CNN
F 1 "PWR_FLAG" V 2950 4178 50  0000 L CNN
F 2 "" H 2950 4050 50  0001 C CNN
F 3 "~" H 2950 4050 50  0001 C CNN
	1    2950 4050
	0    1    1    0   
$EndComp
Wire Notes Line
	7800 3200 7800 3700
Wire Notes Line
	7800 3700 6850 3700
Wire Notes Line
	6850 3700 6850 3200
Wire Notes Line
	6850 3200 7800 3200
$Comp
L pspice:VSOURCE V3
U 1 1 5F9969D2
P 2950 4400
F 0 "V3" H 3178 4446 50  0000 L CNN
F 1 "12v" H 3178 4355 50  0000 L CNN
F 2 "" H 2950 4400 50  0001 C CNN
F 3 "~" H 2950 4400 50  0001 C CNN
F 4 "V" H 2950 4400 50  0001 C CNN "Spice_Primitive"
F 5 "dc 12 ac 0 0 pulse(0 0 0 0 0 0 0)" H 2950 4400 50  0001 C CNN "Spice_Model"
F 6 "Y" H 2950 4400 50  0001 C CNN "Spice_Netlist_Enabled"
	1    2950 4400
	1    0    0    -1  
$EndComp
Wire Wire Line
	2450 4050 2950 4050
$Comp
L power:GND #PWR01
U 1 1 5F910D66
P 2450 4050
F 0 "#PWR01" H 2450 3800 50  0001 C CNN
F 1 "GND" H 2455 3877 50  0000 C CNN
F 2 "" H 2450 4050 50  0001 C CNN
F 3 "" H 2450 4050 50  0001 C CNN
	1    2450 4050
	1    0    0    -1  
$EndComp
$Comp
L pspice:VSOURCE V2
U 1 1 5F997265
P 2950 3750
F 0 "V2" H 3178 3796 50  0000 L CNN
F 1 "12v" H 3178 3705 50  0000 L CNN
F 2 "" H 2950 3750 50  0001 C CNN
F 3 "~" H 2950 3750 50  0001 C CNN
F 4 "V" H 2950 3750 50  0001 C CNN "Spice_Primitive"
F 5 "dc 12 ac 0 0" H 2950 3750 50  0001 C CNN "Spice_Model"
F 6 "Y" H 2950 3750 50  0001 C CNN "Spice_Netlist_Enabled"
	1    2950 3750
	1    0    0    -1  
$EndComp
Connection ~ 2950 4050
Wire Wire Line
	2950 3300 2950 3450
$Comp
L power:PWR_FLAG #FLG0103
U 1 1 5F9928CB
P 2950 3450
F 0 "#FLG0103" H 2950 3525 50  0001 C CNN
F 1 "PWR_FLAG" V 2950 3578 50  0000 L CNN
F 2 "" H 2950 3450 50  0001 C CNN
F 3 "~" H 2950 3450 50  0001 C CNN
	1    2950 3450
	0    1    1    0   
$EndComp
Connection ~ 2950 3450
Wire Wire Line
	2950 4700 2950 4750
Wire Wire Line
	6000 4100 6000 4300
Connection ~ 2950 4750
Wire Wire Line
	2950 4750 2950 4850
$Comp
L power:+12V #PWR03
U 1 1 5F9AC639
P 2950 3300
F 0 "#PWR03" H 2950 3150 50  0001 C CNN
F 1 "+12V" H 2965 3473 50  0000 C CNN
F 2 "" H 2950 3300 50  0001 C CNN
F 3 "" H 2950 3300 50  0001 C CNN
	1    2950 3300
	1    0    0    -1  
$EndComp
$Comp
L power:+12V #PWR07
U 1 1 5F9ACE25
P 6000 3400
F 0 "#PWR07" H 6000 3250 50  0001 C CNN
F 1 "+12V" H 6015 3573 50  0000 C CNN
F 2 "" H 6000 3400 50  0001 C CNN
F 3 "" H 6000 3400 50  0001 C CNN
	1    6000 3400
	1    0    0    -1  
$EndComp
$Comp
L power:-12V #PWR06
U 1 1 5F9AD949
P 2950 4850
F 0 "#PWR06" H 2950 4950 50  0001 C CNN
F 1 "-12V" H 2965 5023 50  0000 C CNN
F 2 "" H 2950 4850 50  0001 C CNN
F 3 "" H 2950 4850 50  0001 C CNN
	1    2950 4850
	-1   0    0    1   
$EndComp
$Comp
L power:-12V #PWR09
U 1 1 5F9AEF00
P 6000 4300
F 0 "#PWR09" H 6000 4400 50  0001 C CNN
F 1 "-12V" H 6015 4473 50  0000 C CNN
F 2 "" H 6000 4300 50  0001 C CNN
F 3 "" H 6000 4300 50  0001 C CNN
	1    6000 4300
	-1   0    0    1   
$EndComp
NoConn ~ 6100 4100
NoConn ~ 6200 4100
Wire Wire Line
	5650 3900 5650 4050
Wire Wire Line
	5850 4050 5650 4050
Wire Wire Line
	5850 4050 5850 4550
Connection ~ 5650 4050
Wire Wire Line
	5650 4050 5650 4100
$Comp
L Amplifier_Operational:LM741 U1
U 1 1 5F909BE0
P 6100 3800
F 0 "U1" H 6444 3846 50  0000 L CNN
F 1 "LM741" H 6444 3755 50  0000 L CNN
F 2 "" H 6150 3850 50  0001 C CNN
F 3 "http://www.ti.com/lit/ds/symlink/lm741.pdf" H 6250 3950 50  0001 C CNN
F 4 "X" H 6100 3800 50  0001 C CNN "Spice_Primitive"
F 5 "LM741/NS" H 6100 3800 50  0001 C CNN "Spice_Model"
F 6 "Y" H 6100 3800 50  0001 C CNN "Spice_Netlist_Enabled"
F 7 "/home/harlock/kicad_folder/MODELS/LM741.MOD" H 6100 3800 50  0001 C CNN "Spice_Lib_File"
F 8 "3 2 7 4 6" H 6100 3800 50  0001 C CNN "Spice_Node_Sequence"
	1    6100 3800
	1    0    0    -1  
$EndComp
Wire Wire Line
	7000 3800 7000 3900
Text Label 6700 3800 0    50   ~ 0
Vout
Text Label 4500 3700 0    50   ~ 0
Vin
Text Notes 6900 3550 0    50   ~ 0
.ac dec 10 1m 10meg\n.plot vdb(Vout)\n.plot ph(Vout)\n
$EndSCHEMATC
